EESchema Schematic File Version 4
EELAYER 30 0
EELAYER END
$Descr USLetter 11000 8500
encoding utf-8
Sheet 2 8
Title "MOTOR Driver"
Date ""
Rev "0.1"
Comp "Oringinal By: SparkFun"
Comment1 "Original By: Peter Dokter/Eric Orosel"
Comment2 "https://creativecommons.org/licenses/by-sa/4.0/"
Comment3 "https://github.com/sparkfun/Motor_Driver-Dual_TB6612FNG"
Comment4 ""
$EndDescr
Text Label 5850 6100 0    10   ~ 0
GND
Wire Wire Line
	7300 5450 7300 5350
Text Label 6800 4500 0    70   ~ 0
AIN2
Text Label 6800 4400 0    70   ~ 0
AIN1
Text Label 6800 5200 0    70   ~ 0
STBY
Text Label 6800 4300 0    70   ~ 0
BIN1
Text Label 6800 4200 0    70   ~ 0
BIN2
$Comp
L Device:C_Small C?
U 1 1 F1C90C04
P 6100 5950
AR Path="/5DCDAE83/F1C90C04" Ref="C?"  Part="1" 
AR Path="/5E121B47/F1C90C04" Ref="C201"  Part="1" 
AR Path="/F1C90C04" Ref="C?"  Part="1" 
AR Path="/5DE9EB07/F1C90C04" Ref="C301"  Part="1" 
AR Path="/5DEA75B1/F1C90C04" Ref="C401"  Part="1" 
AR Path="/5DEAE196/F1C90C04" Ref="C501"  Part="1" 
AR Path="/5DEB5B93/F1C90C04" Ref="C601"  Part="1" 
F 0 "C201" V 6055 5840 70  0000 L BNN
F 1 "2.2uF" V 6215 5680 70  0000 L BNN
F 2 "Capacitor_SMD:C_0402_1005Metric" H 6100 5950 50  0001 C CNN
F 3 "https://statics3.seeedstudio.com/images/opl/datasheet/capacitor-series.pdf" H 6100 5950 50  0001 C CNN
F 4 "CC0402MRX5R5BB225		" V 6100 5950 50  0001 C CNN "MPN"
F 5 "302010233" V 6100 5950 50  0001 C CNN "SKU"
	1    6100 5950
	-1   0    0    1   
$EndComp
$Comp
L Device:CP1_Small C?
U 1 1 FA3B87C3
P 5850 5950
AR Path="/5DCDAE83/FA3B87C3" Ref="C?"  Part="1" 
AR Path="/5E121B47/FA3B87C3" Ref="C202"  Part="1" 
AR Path="/FA3B87C3" Ref="C?"  Part="1" 
AR Path="/5DE9EB07/FA3B87C3" Ref="C302"  Part="1" 
AR Path="/5DEA75B1/FA3B87C3" Ref="C402"  Part="1" 
AR Path="/5DEAE196/FA3B87C3" Ref="C502"  Part="1" 
AR Path="/5DEB5B93/FA3B87C3" Ref="C602"  Part="1" 
F 0 "C202" V 5805 5730 70  0000 L BNN
F 1 "10uF" V 5955 5600 70  0000 L BNN
F 2 "Capacitor_Tantalum_SMD:CP_EIA-3528-15_AVX-H" H 5850 5950 50  0001 C CNN
F 3 "http://file.elecfans.com/web1/M00/57/FC/pIYBAFtPCw6AM4ZlAAHpgPbflI0347.pdf" H 5850 5950 50  0001 C CNN
F 4 "TAJB106K020RNJ" V 5850 5950 50  0001 C CNN "MPN"
	1    5850 5950
	1    0    0    -1  
$EndComp
Text Notes 3100 5650 0    85   ~ 0
VMAX=10.9V\nVCC=2.7-5.5V
Text HLabel 6800 5300 3    50   Input ~ 0
STBY
Text HLabel 7000 4300 2    50   Input ~ 0
BIN1
Text HLabel 7000 4200 2    50   Input ~ 0
BIN2
Text HLabel 5650 5550 3    50   Input ~ 0
VM
$Comp
L power:GND #PWR?
U 1 1 5DD3AF13
P 7300 4700
AR Path="/5DCDAE83/5DD3AF13" Ref="#PWR?"  Part="1" 
AR Path="/5E121B47/5DD3AF13" Ref="#PWR0204"  Part="1" 
AR Path="/5DE9EB07/5DD3AF13" Ref="#PWR0304"  Part="1" 
AR Path="/5DEA75B1/5DD3AF13" Ref="#PWR0404"  Part="1" 
AR Path="/5DEAE196/5DD3AF13" Ref="#PWR0504"  Part="1" 
AR Path="/5DEB5B93/5DD3AF13" Ref="#PWR0604"  Part="1" 
F 0 "#PWR0604" H 7300 4450 50  0001 C CNN
F 1 "GND" H 7305 4527 50  0000 C CNN
F 2 "" H 7300 4700 50  0001 C CNN
F 3 "" H 7300 4700 50  0001 C CNN
	1    7300 4700
	0    -1   -1   0   
$EndComp
$Comp
L serial-motor-driver-rescue:0.1UF-0402-16V-10%-SparkFun_Motor_Driver-TB6612FNG_v11c-eagle-import C?
U 1 1 5E0B6E55
P 7300 5250
AR Path="/5DCDAE83/5E0B6E55" Ref="C?"  Part="1" 
AR Path="/5E121B47/5E0B6E55" Ref="C203"  Part="1" 
AR Path="/5E0B6E55" Ref="C?"  Part="1" 
AR Path="/5DE9EB07/5E0B6E55" Ref="C303"  Part="1" 
AR Path="/5DEA75B1/5E0B6E55" Ref="C403"  Part="1" 
AR Path="/5DEAE196/5E0B6E55" Ref="C503"  Part="1" 
AR Path="/5DEB5B93/5E0B6E55" Ref="C603"  Part="1" 
F 0 "C203" V 7255 5140 70  0000 L BNN
F 1 "0.1uF" V 7415 4980 70  0000 L BNN
F 2 "Capacitor_SMD:C_0402_1005Metric" H 7300 5250 50  0001 C CNN
F 3 "https://statics3.seeedstudio.com/images/opl/datasheet/capacitor-series.pdf" H 7300 5250 50  0001 C CNN
F 4 "CC0402KRX7R7BB104" V 7300 5250 50  0001 C CNN "MPN"
F 5 "302010004" V 7300 5250 50  0001 C CNN "SKU"
	1    7300 5250
	1    0    0    -1  
$EndComp
$Comp
L Graphic:Logo_Open_Hardware_Small #LOGO201
U 1 1 5E0EEFB1
P 10200 6500
AR Path="/5E121B47/5E0EEFB1" Ref="#LOGO201"  Part="1" 
AR Path="/5DE9EB07/5E0EEFB1" Ref="#LOGO301"  Part="1" 
AR Path="/5DEA75B1/5E0EEFB1" Ref="#LOGO401"  Part="1" 
AR Path="/5DEAE196/5E0EEFB1" Ref="#LOGO501"  Part="1" 
AR Path="/5DEB5B93/5E0EEFB1" Ref="#LOGO601"  Part="1" 
F 0 "#LOGO201" H 10200 6775 50  0001 C CNN
F 1 "Logo_Open_Hardware_Small" H 10200 6275 50  0001 C CNN
F 2 "" H 10200 6500 50  0001 C CNN
F 3 "~" H 10200 6500 50  0001 C CNN
	1    10200 6500
	1    0    0    -1  
$EndComp
Text HLabel 7000 4500 2    50   Input ~ 0
AIN2
Text HLabel 7000 4400 2    50   Input ~ 0
AIN1
$Comp
L Driver_Motor:DRV8833PWP U301
U 1 1 5DDCB8D0
P 6150 4600
AR Path="/5DE9EB07/5DDCB8D0" Ref="U301"  Part="1" 
AR Path="/5E121B47/5DDCB8D0" Ref="U201"  Part="1" 
AR Path="/5DEA75B1/5DDCB8D0" Ref="U401"  Part="1" 
AR Path="/5DEAE196/5DDCB8D0" Ref="U501"  Part="1" 
AR Path="/5DEB5B93/5DDCB8D0" Ref="U601"  Part="1" 
F 0 "U201" H 6150 3719 50  0000 C CNN
F 1 "DRV8833PWP" H 6150 3800 50  0000 C CNN
F 2 "Package_SO:HTSSOP-16-1EP_4.4x5mm_P0.65mm_EP3.4x5mm_Mask2.46x2.31mm_ThermalVias" H 6600 5050 50  0001 L CNN
F 3 "http://www.ti.com/lit/ds/symlink/drv8833.pdf" H 6000 5150 50  0001 C CNN
F 4 "DRV8833PWPR" H 6150 4600 50  0001 C CNN "MPN"
	1    6150 4600
	-1   0    0    1   
$EndComp
Text HLabel 5200 4400 0    50   Output ~ 0
AO2
Text HLabel 5200 4500 0    50   Output ~ 0
A01
Text HLabel 5200 4200 0    50   Output ~ 0
BO1
Text HLabel 5200 4300 0    50   Output ~ 0
BO2
Wire Wire Line
	5200 4300 5550 4300
Wire Wire Line
	5200 4400 5550 4400
Wire Wire Line
	5200 4500 5550 4500
Wire Wire Line
	5200 4200 5550 4200
Wire Wire Line
	7000 4200 6750 4200
Wire Wire Line
	7000 4300 6750 4300
Wire Wire Line
	7000 4400 6750 4400
Wire Wire Line
	7000 4500 6750 4500
$Comp
L power:GND #PWR?
U 1 1 5DDF5C1D
P 6350 3850
AR Path="/5DCDAE83/5DDF5C1D" Ref="#PWR?"  Part="1" 
AR Path="/5E121B47/5DDF5C1D" Ref="#PWR0203"  Part="1" 
AR Path="/5DE9EB07/5DDF5C1D" Ref="#PWR0303"  Part="1" 
AR Path="/5DEA75B1/5DDF5C1D" Ref="#PWR0403"  Part="1" 
AR Path="/5DEAE196/5DDF5C1D" Ref="#PWR0503"  Part="1" 
AR Path="/5DEB5B93/5DDF5C1D" Ref="#PWR0603"  Part="1" 
F 0 "#PWR0603" H 6350 3600 50  0001 C CNN
F 1 "GND" H 6355 3677 50  0000 C CNN
F 2 "" H 6350 3850 50  0001 C CNN
F 3 "" H 6350 3850 50  0001 C CNN
	1    6350 3850
	0    -1   -1   0   
$EndComp
Wire Wire Line
	6150 3900 6150 3850
Wire Wire Line
	6150 3850 6250 3850
Wire Wire Line
	6250 3900 6250 3850
Connection ~ 6250 3850
Wire Wire Line
	6250 3850 6350 3850
Wire Wire Line
	6750 5000 6800 5000
Wire Wire Line
	6800 5000 6800 5300
Wire Wire Line
	6750 4900 7300 4900
Wire Wire Line
	7300 4900 7300 5050
Text HLabel 7300 5450 3    50   Input ~ 0
VM
$Comp
L power:GND #PWR?
U 1 1 5DD39B7E
P 5850 6200
AR Path="/5DCDAE83/5DD39B7E" Ref="#PWR?"  Part="1" 
AR Path="/5E121B47/5DD39B7E" Ref="#PWR0202"  Part="1" 
AR Path="/5DE9EB07/5DD39B7E" Ref="#PWR0302"  Part="1" 
AR Path="/5DEA75B1/5DD39B7E" Ref="#PWR0402"  Part="1" 
AR Path="/5DEAE196/5DD39B7E" Ref="#PWR0502"  Part="1" 
AR Path="/5DEB5B93/5DD39B7E" Ref="#PWR0602"  Part="1" 
F 0 "#PWR0602" H 5850 5950 50  0001 C CNN
F 1 "GND" H 5855 6027 50  0000 C CNN
F 2 "" H 5850 6200 50  0001 C CNN
F 3 "" H 5850 6200 50  0001 C CNN
	1    5850 6200
	1    0    0    -1  
$EndComp
Wire Wire Line
	5650 5550 5850 5550
Wire Wire Line
	5850 5300 5850 5550
$Comp
L Connector_Generic:Conn_01x01 J301
U 1 1 5E2D6671
P 5350 4700
AR Path="/5DE9EB07/5E2D6671" Ref="J301"  Part="1" 
AR Path="/5E121B47/5E2D6671" Ref="J201"  Part="1" 
AR Path="/5DEA75B1/5E2D6671" Ref="J401"  Part="1" 
AR Path="/5DEAE196/5E2D6671" Ref="J501"  Part="1" 
AR Path="/5DEB5B93/5E2D6671" Ref="J601"  Part="1" 
F 0 "J201" H 5268 4475 50  0000 C CNN
F 1 "Conn_01x01" H 5268 4566 50  0000 C CNN
F 2 "TestPoint:TestPoint_Pad_1.0x1.0mm" H 5350 4700 50  0001 C CNN
F 3 "~" H 5350 4700 50  0001 C CNN
	1    5350 4700
	-1   0    0    1   
$EndComp
Wire Wire Line
	5850 5550 5850 5850
Connection ~ 5850 5550
Wire Wire Line
	5950 5300 5950 5550
Wire Wire Line
	5950 5550 6100 5550
Wire Wire Line
	5850 6050 5850 6200
$Comp
L power:GND #PWR0301
U 1 1 5E2F512B
P 6100 6150
AR Path="/5DE9EB07/5E2F512B" Ref="#PWR0301"  Part="1" 
AR Path="/5E121B47/5E2F512B" Ref="#PWR0201"  Part="1" 
AR Path="/5DEA75B1/5E2F512B" Ref="#PWR0401"  Part="1" 
AR Path="/5DEAE196/5E2F512B" Ref="#PWR0501"  Part="1" 
AR Path="/5DEB5B93/5E2F512B" Ref="#PWR0601"  Part="1" 
F 0 "#PWR0601" H 6100 5900 50  0001 C CNN
F 1 "GND" H 6105 5977 50  0000 C CNN
F 2 "" H 6100 6150 50  0001 C CNN
F 3 "" H 6100 6150 50  0001 C CNN
	1    6100 6150
	1    0    0    -1  
$EndComp
Wire Wire Line
	6100 5550 6100 5850
Wire Wire Line
	6100 6050 6100 6150
$Comp
L power:PWR_FLAG #FLG0104
U 1 1 5E2FB7A3
P 6100 5550
AR Path="/5E121B47/5E2FB7A3" Ref="#FLG0104"  Part="1" 
AR Path="/5DE9EB07/5E2FB7A3" Ref="#FLG0105"  Part="1" 
AR Path="/5DEA75B1/5E2FB7A3" Ref="#FLG0106"  Part="1" 
AR Path="/5DEAE196/5E2FB7A3" Ref="#FLG0107"  Part="1" 
AR Path="/5DEB5B93/5E2FB7A3" Ref="#FLG0108"  Part="1" 
F 0 "#FLG0108" H 6100 5625 50  0001 C CNN
F 1 "PWR_FLAG" H 6100 5723 50  0000 C CNN
F 2 "" H 6100 5550 50  0001 C CNN
F 3 "~" H 6100 5550 50  0001 C CNN
	1    6100 5550
	1    0    0    -1  
$EndComp
Connection ~ 6100 5550
Wire Wire Line
	6750 4700 7100 4700
Wire Wire Line
	7100 4800 6750 4800
$Comp
L Device:Net-Tie_2 NT201
U 1 1 5E306BBB
P 7200 4700
AR Path="/5E121B47/5E306BBB" Ref="NT201"  Part="1" 
AR Path="/5DE9EB07/5E306BBB" Ref="NT301"  Part="1" 
AR Path="/5DEA75B1/5E306BBB" Ref="NT401"  Part="1" 
AR Path="/5DEAE196/5E306BBB" Ref="NT501"  Part="1" 
AR Path="/5DEB5B93/5E306BBB" Ref="NT601"  Part="1" 
F 0 "NT201" H 7200 4881 50  0000 C CNN
F 1 "Net-Tie_2" H 7200 4790 50  0000 C CNN
F 2 "NetTie:NetTie-2_SMD_Pad0.5mm" H 7200 4700 50  0001 C CNN
F 3 "~" H 7200 4700 50  0001 C CNN
	1    7200 4700
	1    0    0    -1  
$EndComp
$Comp
L Device:Net-Tie_2 NT202
U 1 1 5E4A16F9
P 7200 4800
AR Path="/5E121B47/5E4A16F9" Ref="NT202"  Part="1" 
AR Path="/5DE9EB07/5E4A16F9" Ref="NT302"  Part="1" 
AR Path="/5DEA75B1/5E4A16F9" Ref="NT402"  Part="1" 
AR Path="/5DEAE196/5E4A16F9" Ref="NT502"  Part="1" 
AR Path="/5DEB5B93/5E4A16F9" Ref="NT602"  Part="1" 
F 0 "NT202" H 7200 4981 50  0000 C CNN
F 1 "Net-Tie_2" H 7200 4890 50  0000 C CNN
F 2 "NetTie:NetTie-2_SMD_Pad0.5mm" H 7200 4800 50  0001 C CNN
F 3 "~" H 7200 4800 50  0001 C CNN
	1    7200 4800
	1    0    0    -1  
$EndComp
Wire Wire Line
	7300 4800 7300 4700
Connection ~ 7300 4700
$EndSCHEMATC
