EESchema Schematic File Version 4
EELAYER 30 0
EELAYER END
$Descr A4 11693 8268
encoding utf-8
Sheet 7 8
Title ""
Date ""
Rev ""
Comp ""
Comment1 ""
Comment2 ""
Comment3 ""
Comment4 ""
$EndDescr
Text HLabel 950  850  0    50   Input ~ 0
GND
Text HLabel 1850 1650 0    50   Input ~ 0
Vin
Text HLabel 6100 3250 2    50   Output ~ 0
5v
Text HLabel 9500 1900 2    50   Output ~ 0
6v
Text HLabel 6150 1850 2    50   Output ~ 0
8v
$Comp
L Regulator_Switching:LM2596S-ADJ U701
U 1 1 5E5F9F82
P 3550 1750
F 0 "U701" H 3550 2117 50  0000 C CNN
F 1 "LM2596-ADJ" H 3550 2026 50  0000 C CNN
F 2 "Package_TO_SOT_SMD:TO-263-5_TabPin3" H 3600 1500 50  0001 L CIN
F 3 "http://file.elecfans.com/web1/M00/91/A2/o4YBAFzZLi-AJO8VAAnojdEOwyU769.pdf?filename=LM2596-series_HTC.pdf" H 3550 1750 50  0001 C CNN
F 4 "LM2596R-ADJ" H 3550 1750 50  0001 C CNN "MPN"
	1    3550 1750
	1    0    0    -1  
$EndComp
$Comp
L Device:CP1_Small Cin701
U 1 1 5E5FA7D1
P 2550 2100
F 0 "Cin701" H 2641 2146 50  0000 L CNN
F 1 "22uf" H 2641 2055 50  0000 L CNN
F 2 "Capacitor_Tantalum_SMD:CP_EIA-7343-15_Kemet-W" H 2550 2100 50  0001 C CNN
F 3 "https://industrial.panasonic.com/content/data/CP/PDF/POSCAP/S_POSCAP_TQC_E.pdf" H 2550 2100 50  0001 C CNN
F 4 "25TQC22MYFT" H 2550 2100 50  0001 C CNN "MPN"
	1    2550 2100
	1    0    0    -1  
$EndComp
$Comp
L Device:CP1_Small Cout701
U 1 1 5E5FBCC6
P 4850 2000
F 0 "Cout701" H 4941 2046 50  0000 L CNN
F 1 "100uf" H 4941 1955 50  0000 L CNN
F 2 "Capacitor_Tantalum_SMD:CP_EIA-7343-31_Kemet-D" H 4850 2000 50  0001 C CNN
F 3 "http://www.vishay.com/docs/40005/593d.pdf" H 4850 2000 50  0001 C CNN
F 4 "593D107X9016D2TE3" H 4850 2000 50  0001 C CNN "MPN"
	1    4850 2000
	1    0    0    -1  
$EndComp
$Comp
L power:GND #PWR0115
U 1 1 5E5FD6C7
P 1050 850
F 0 "#PWR0115" H 1050 600 50  0001 C CNN
F 1 "GND" H 1055 677 50  0000 C CNN
F 2 "" H 1050 850 50  0001 C CNN
F 3 "" H 1050 850 50  0001 C CNN
	1    1050 850 
	1    0    0    -1  
$EndComp
$Comp
L power:GND #PWR0116
U 1 1 5E5FDD0C
P 3550 2400
F 0 "#PWR0116" H 3550 2150 50  0001 C CNN
F 1 "GND" H 3555 2227 50  0000 C CNN
F 2 "" H 3550 2400 50  0001 C CNN
F 3 "" H 3550 2400 50  0001 C CNN
	1    3550 2400
	1    0    0    -1  
$EndComp
Wire Wire Line
	950  850  1050 850 
$Comp
L Device:C_Small CF701
U 1 1 5E5FF2AC
P 4650 1100
F 0 "CF701" V 4421 1100 50  0000 C CNN
F 1 "680pf" V 4512 1100 50  0000 C CNN
F 2 "Capacitor_SMD:C_0805_2012Metric" H 4650 1100 50  0001 C CNN
F 3 "http://file.elecfans.com/web1/M00/95/D1/pIYBAF0Bqv-ACvu8ABIgAMtcVQo231.pdf?filename=CC_YAGEO.pdf" H 4650 1100 50  0001 C CNN
F 4 "CC0805JRNPO9BN681" H 4650 1100 50  0001 C CNN "MPN"
	1    4650 1100
	0    1    1    0   
$EndComp
$Comp
L Device:L L701
U 1 1 5E6008CC
P 4400 1850
F 0 "L701" V 4590 1850 50  0000 C CNN
F 1 "47uh" V 4499 1850 50  0000 C CNN
F 2 "serial-motor-driver:WE-PD_1210" H 4400 1850 50  0001 C CNN
F 3 "https://www.we-online.com/catalog/datasheet/7447709470.pdf" H 4400 1850 50  0001 C CNN
F 4 "7447709470" H 4400 1850 50  0001 C CNN "MPN"
	1    4400 1850
	0    -1   -1   0   
$EndComp
$Comp
L Device:D_Schottky D701
U 1 1 5E602C66
P 4200 2150
F 0 "D701" V 4154 2229 50  0000 L CNN
F 1 "VR=60V IF=5A" V 4245 2229 50  0000 L CNN
F 2 "Diode_SMD:D_PowerDI-5" H 4200 2150 50  0001 C CNN
F 3 "http://file.elecfans.com/web1/M00/7F/78/pIYBAFwi3XCAVgobAAPWe1LlNlM241.pdf?filename=PDS560_DIODES.pdf" H 4200 2150 50  0001 C CNN
F 4 "PDS560-13" H 4200 2150 50  0001 C CNN "MPN"
	1    4200 2150
	0    1    1    0   
$EndComp
$Comp
L Device:R_Small_US Rfb2701
U 1 1 5E603FEB
P 4650 1500
F 0 "Rfb2701" V 4445 1500 50  0000 C CNN
F 1 "5.49k" V 4536 1500 50  0000 C CNN
F 2 "Resistor_SMD:R_1206_3216Metric" H 4650 1500 50  0001 C CNN
F 3 "http://www.yageo.com/documents/recent/PYu-RC1206_51_RoHS_L-4.pdf" H 4650 1500 50  0001 C CNN
F 4 "RC1206FR-075K49L" H 4650 1500 50  0001 C CNN "MPN"
	1    4650 1500
	0    1    1    0   
$EndComp
$Comp
L Device:R_Small_US Rfb1701
U 1 1 5E604A5B
P 3900 1100
F 0 "Rfb1701" V 3695 1100 50  0000 C CNN
F 1 "1k" V 3786 1100 50  0000 C CNN
F 2 "Resistor_SMD:R_1206_3216Metric" H 3900 1100 50  0001 C CNN
F 3 "http://www.yageo.com.tw/exep/pages/download/literatures/PYu-R_INT-thick_7.pdf" H 3900 1100 50  0001 C CNN
F 4 "RC1206FR-071KL	" H 3900 1100 50  0001 C CNN "MPN"
	1    3900 1100
	0    1    1    0   
$EndComp
$Comp
L power:GND #PWR0117
U 1 1 5E605065
P 3800 1100
F 0 "#PWR0117" H 3800 850 50  0001 C CNN
F 1 "GND" H 3805 927 50  0000 C CNN
F 2 "" H 3800 1100 50  0001 C CNN
F 3 "" H 3800 1100 50  0001 C CNN
	1    3800 1100
	1    0    0    -1  
$EndComp
Wire Wire Line
	4000 1100 4300 1100
Wire Wire Line
	4750 1100 5100 1100
Wire Wire Line
	5100 1100 5100 1500
Wire Wire Line
	5100 1500 4750 1500
Wire Wire Line
	4550 1500 4300 1500
Wire Wire Line
	4300 1500 4300 1100
Connection ~ 4300 1100
Wire Wire Line
	4300 1100 4550 1100
Wire Wire Line
	4300 1500 4050 1500
Wire Wire Line
	4050 1500 4050 1650
Connection ~ 4300 1500
Wire Wire Line
	4050 1850 4200 1850
Wire Wire Line
	4550 1850 4850 1850
Wire Wire Line
	4850 1850 4850 1900
Wire Wire Line
	4850 2100 4850 2400
Wire Wire Line
	4850 2400 4200 2400
Wire Wire Line
	4200 2400 4200 2300
Wire Wire Line
	4200 2000 4200 1850
Connection ~ 4200 1850
Wire Wire Line
	4200 1850 4250 1850
Connection ~ 4200 2400
Wire Wire Line
	4850 1850 5100 1850
Wire Wire Line
	5100 1850 5100 1500
Connection ~ 4850 1850
Connection ~ 5100 1500
Connection ~ 3550 2400
Wire Wire Line
	3550 2400 4200 2400
Wire Wire Line
	3550 2400 3550 2050
Connection ~ 5100 1850
Wire Wire Line
	5100 1850 6050 1850
Wire Wire Line
	1850 1650 2550 1650
Wire Wire Line
	2550 1650 2550 2000
Connection ~ 2550 1650
Wire Wire Line
	2550 1650 3050 1650
Wire Wire Line
	2550 2200 2550 2400
Wire Wire Line
	2550 2400 3050 2400
Wire Wire Line
	3050 1850 3050 2400
Connection ~ 3050 2400
Wire Wire Line
	3050 2400 3550 2400
Wire Wire Line
	6050 1850 6050 2100
Wire Wire Line
	6050 2100 6650 2100
Wire Wire Line
	7000 2100 7000 1900
Connection ~ 6050 1850
Wire Wire Line
	6050 1850 6150 1850
$Comp
L power:+8V #PWR0118
U 1 1 5E64B6DF
P 6050 1850
F 0 "#PWR0118" H 6050 1700 50  0001 C CNN
F 1 "+8V" H 6065 2023 50  0000 C CNN
F 2 "" H 6050 1850 50  0001 C CNN
F 3 "" H 6050 1850 50  0001 C CNN
	1    6050 1850
	1    0    0    -1  
$EndComp
Text HLabel 1800 3050 0    50   Input ~ 0
Vin
$Comp
L Device:CP1_Small Cin702
U 1 1 5E667346
P 2500 3500
F 0 "Cin702" H 2591 3546 50  0000 L CNN
F 1 "22uf" H 2591 3455 50  0000 L CNN
F 2 "Capacitor_Tantalum_SMD:CP_EIA-7343-15_Kemet-W" H 2500 3500 50  0001 C CNN
F 3 "https://industrial.panasonic.com/content/data/CP/PDF/POSCAP/S_POSCAP_TQC_E.pdf" H 2500 3500 50  0001 C CNN
F 4 "25TQC22MYFT" H 2500 3500 50  0001 C CNN "MPN"
	1    2500 3500
	1    0    0    -1  
$EndComp
$Comp
L Device:CP1_Small Cout702
U 1 1 5E66734D
P 4800 3400
F 0 "Cout702" H 4891 3446 50  0000 L CNN
F 1 "4.7uf" H 4891 3355 50  0000 L CNN
F 2 "Capacitor_Tantalum_SMD:CP_EIA-7343-31_Kemet-D" H 4800 3400 50  0001 C CNN
F 3 "http://www.vishay.com/docs/40002/293d.pdf" H 4800 3400 50  0001 C CNN
F 4 "293D475X9035D2TE3" H 4800 3400 50  0001 C CNN "MPN"
	1    4800 3400
	1    0    0    -1  
$EndComp
$Comp
L power:GND #PWR0701
U 1 1 5E667353
P 3500 3800
F 0 "#PWR0701" H 3500 3550 50  0001 C CNN
F 1 "GND" H 3505 3627 50  0000 C CNN
F 2 "" H 3500 3800 50  0001 C CNN
F 3 "" H 3500 3800 50  0001 C CNN
	1    3500 3800
	1    0    0    -1  
$EndComp
$Comp
L Device:L L702
U 1 1 5E667361
P 4350 3250
F 0 "L702" V 4540 3250 50  0000 C CNN
F 1 "33uh" V 4449 3250 50  0000 C CNN
F 2 "serial-motor-driver:WE-PD_1210" H 4350 3250 50  0001 C CNN
F 3 "https://www.we-online.com/catalog/datasheet/7447709330.pdf" H 4350 3250 50  0001 C CNN
F 4 "7447709330" H 4350 3250 50  0001 C CNN "MPN"
	1    4350 3250
	0    -1   -1   0   
$EndComp
$Comp
L Device:D_Schottky D702
U 1 1 5E667368
P 4150 3550
F 0 "D702" V 4104 3629 50  0000 L CNN
F 1 "VR=60V IF=5A" V 4195 3629 50  0000 L CNN
F 2 "Diode_SMD:D_PowerDI-5" H 4150 3550 50  0001 C CNN
F 3 "http://file.elecfans.com/web1/M00/7F/78/pIYBAFwi3XCAVgobAAPWe1LlNlM241.pdf?filename=PDS560_DIODES.pdf" H 4150 3550 50  0001 C CNN
F 4 "PDS560-13" H 4150 3550 50  0001 C CNN "MPN"
	1    4150 3550
	0    1    1    0   
$EndComp
Wire Wire Line
	4000 2900 4000 3050
Wire Wire Line
	4000 3250 4150 3250
Wire Wire Line
	4500 3250 4800 3250
Wire Wire Line
	4800 3250 4800 3300
Wire Wire Line
	4800 3500 4800 3800
Wire Wire Line
	4800 3800 4150 3800
Wire Wire Line
	4150 3800 4150 3700
Wire Wire Line
	4150 3400 4150 3250
Connection ~ 4150 3250
Wire Wire Line
	4150 3250 4200 3250
Connection ~ 4150 3800
Wire Wire Line
	4800 3250 5050 3250
Wire Wire Line
	5050 3250 5050 2900
Connection ~ 4800 3250
Connection ~ 3500 3800
Wire Wire Line
	3500 3800 4150 3800
Wire Wire Line
	3500 3800 3500 3450
Connection ~ 5050 3250
Wire Wire Line
	1800 3050 2300 3050
Wire Wire Line
	2500 3050 2500 3400
Connection ~ 2500 3050
Wire Wire Line
	2500 3050 3000 3050
Wire Wire Line
	2500 3600 2500 3800
Wire Wire Line
	2500 3800 3000 3800
Wire Wire Line
	3000 3250 3000 3800
Connection ~ 3000 3800
Wire Wire Line
	3000 3800 3500 3800
$Comp
L Regulator_Switching:LM2596S-5 U702
U 1 1 5E668ED7
P 3500 3150
F 0 "U702" H 3500 3517 50  0000 C CNN
F 1 "LM2596S-5" H 3500 3426 50  0000 C CNN
F 2 "Package_TO_SOT_SMD:TO-263-5_TabPin3" H 3550 2900 50  0001 L CIN
F 3 "http://www.ti.com/lit/ds/symlink/lm2596.pdf" H 3500 3150 50  0001 C CNN
F 4 "LM2596R-5.0" H 3500 3150 50  0001 C CNN "MPN"
	1    3500 3150
	1    0    0    -1  
$EndComp
Wire Wire Line
	4000 2900 5050 2900
Wire Wire Line
	5050 3250 5900 3250
$Comp
L Device:CP1_Small Cin703
U 1 1 5E68325A
P 2300 3500
F 0 "Cin703" H 2391 3546 50  0000 L CNN
F 1 "22uf" H 2391 3455 50  0000 L CNN
F 2 "Capacitor_Tantalum_SMD:CP_EIA-7343-15_Kemet-W" H 2300 3500 50  0001 C CNN
F 3 "https://industrial.panasonic.com/content/data/CP/PDF/POSCAP/S_POSCAP_TQC_E.pdf" H 2300 3500 50  0001 C CNN
F 4 "25TQC22MYFT" H 2300 3500 50  0001 C CNN "MPN"
	1    2300 3500
	1    0    0    -1  
$EndComp
Wire Wire Line
	2300 3400 2300 3050
Connection ~ 2300 3050
Wire Wire Line
	2300 3050 2500 3050
Wire Wire Line
	2300 3600 2300 3800
Wire Wire Line
	2300 3800 2500 3800
Connection ~ 2500 3800
$Comp
L Regulator_Linear:AZ1117-ADJ U703
U 1 1 5E69BBE8
P 7900 1900
F 0 "U703" H 7900 2142 50  0000 C CNN
F 1 "AZ1117-ADJ" H 7900 2051 50  0000 C CNN
F 2 "Package_TO_SOT_SMD:SOT-223" H 7900 2150 50  0001 C CIN
F 3 "http://file.elecfans.com/web1/M00/9F/62/pIYBAF1BiXqAGR0lAAtGI6nzIMM600.pdf" H 7900 1900 50  0001 C CNN
F 4 "AZ1117H-ADJTRG1" H 7900 1900 50  0001 C CNN "MPN"
	1    7900 1900
	1    0    0    -1  
$EndComp
$Comp
L Device:CP1_Small C701
U 1 1 5E69FD98
P 7450 2000
F 0 "C701" H 7541 2046 50  0000 L CNN
F 1 "10uf" H 7541 1955 50  0000 L CNN
F 2 "Capacitor_Tantalum_SMD:CP_EIA-3528-15_AVX-H" H 7450 2000 50  0001 C CNN
F 3 "http://file.elecfans.com/web1/M00/57/FC/pIYBAFtPCw6AM4ZlAAHpgPbflI0347.pdf" H 7450 2000 50  0001 C CNN
F 4 "TAJB106K020RNJ" H 7450 2000 50  0001 C CNN "MPN"
	1    7450 2000
	1    0    0    -1  
$EndComp
$Comp
L Device:CP1_Small C702
U 1 1 5E6A05B3
P 8850 2000
F 0 "C702" H 8941 2046 50  0000 L CNN
F 1 "10uf" H 8941 1955 50  0000 L CNN
F 2 "Capacitor_Tantalum_SMD:CP_EIA-3528-15_AVX-H" H 8850 2000 50  0001 C CNN
F 3 "http://file.elecfans.com/web1/M00/57/FC/pIYBAFtPCw6AM4ZlAAHpgPbflI0347.pdf" H 8850 2000 50  0001 C CNN
F 4 "TAJB106K020RNJ" H 8850 2000 50  0001 C CNN "MPN"
	1    8850 2000
	1    0    0    -1  
$EndComp
$Comp
L Device:R_Small_US Ra1701
U 1 1 5E6A0FCD
P 8300 2000
F 0 "Ra1701" H 8368 2046 50  0000 L CNN
F 1 "3.83k" H 8368 1955 50  0000 L CNN
F 2 "Resistor_SMD:R_1206_3216Metric" H 8300 2000 50  0001 C CNN
F 3 "http://www.yageo.com/documents/recent/PYu-RC1206_51_RoHS_L-4.pdf" H 8300 2000 50  0001 C CNN
F 4 "RC1206FR-073K83L" H 8300 2000 50  0001 C CNN "MPN"
	1    8300 2000
	1    0    0    -1  
$EndComp
Wire Wire Line
	7450 1900 7600 1900
Wire Wire Line
	8200 1900 8300 1900
Wire Wire Line
	8300 2100 8300 2250
Connection ~ 8300 1900
Wire Wire Line
	8300 2250 7900 2250
Wire Wire Line
	7900 2250 7900 2200
Connection ~ 8300 2250
Wire Wire Line
	8300 2250 8300 2350
$Comp
L power:GND #PWR0702
U 1 1 5E6AE474
P 8300 2650
F 0 "#PWR0702" H 8300 2400 50  0001 C CNN
F 1 "GND" H 8305 2477 50  0000 C CNN
F 2 "" H 8300 2650 50  0001 C CNN
F 3 "" H 8300 2650 50  0001 C CNN
	1    8300 2650
	1    0    0    -1  
$EndComp
Wire Wire Line
	7450 2100 7450 2650
Wire Wire Line
	7450 2650 8300 2650
Wire Wire Line
	8300 2550 8300 2650
Connection ~ 8300 2650
Wire Wire Line
	8300 2650 8850 2650
Wire Wire Line
	8850 2650 8850 2100
Connection ~ 8850 1900
Wire Wire Line
	7450 1900 7000 1900
Connection ~ 7450 1900
$Comp
L Device:CP1_Small C703
U 1 1 5E6C12C2
P 9200 2000
F 0 "C703" H 9291 2046 50  0000 L CNN
F 1 "10uf" H 9291 1955 50  0000 L CNN
F 2 "Capacitor_Tantalum_SMD:CP_EIA-3528-15_AVX-H" H 9200 2000 50  0001 C CNN
F 3 "http://file.elecfans.com/web1/M00/57/FC/pIYBAFtPCw6AM4ZlAAHpgPbflI0347.pdf" H 9200 2000 50  0001 C CNN
F 4 "TAJB106K020RNJ" H 9200 2000 50  0001 C CNN "MPN"
	1    9200 2000
	1    0    0    -1  
$EndComp
Wire Wire Line
	8850 1900 9200 1900
Wire Wire Line
	8300 1900 8850 1900
Connection ~ 9200 1900
Wire Wire Line
	9200 2100 9200 2650
Wire Wire Line
	9200 2650 8850 2650
Connection ~ 8850 2650
$Comp
L Device:R_Small_US Ra2701
U 1 1 5E6DDD8B
P 8300 2450
F 0 "Ra2701" H 8232 2404 50  0000 R CNN
F 1 "1k" H 8232 2495 50  0000 R CNN
F 2 "Resistor_SMD:R_1206_3216Metric" H 8300 2450 50  0001 C CNN
F 3 "http://www.yageo.com.tw/exep/pages/download/literatures/PYu-R_INT-thick_7.pdf" H 8300 2450 50  0001 C CNN
F 4 "RC1206FR-071KL	" H 8300 2450 50  0001 C CNN "MPN"
	1    8300 2450
	-1   0    0    1   
$EndComp
$Comp
L power:PWR_FLAG #FLG0110
U 1 1 5E73A615
P 6650 2100
F 0 "#FLG0110" H 6650 2175 50  0001 C CNN
F 1 "PWR_FLAG" H 6650 2273 50  0000 C CNN
F 2 "" H 6650 2100 50  0001 C CNN
F 3 "~" H 6650 2100 50  0001 C CNN
	1    6650 2100
	1    0    0    -1  
$EndComp
Connection ~ 6650 2100
Wire Wire Line
	6650 2100 7000 2100
$Comp
L power:PWR_FLAG #FLG0112
U 1 1 5E73B829
P 5900 3250
F 0 "#FLG0112" H 5900 3325 50  0001 C CNN
F 1 "PWR_FLAG" H 5900 3423 50  0000 C CNN
F 2 "" H 5900 3250 50  0001 C CNN
F 3 "~" H 5900 3250 50  0001 C CNN
	1    5900 3250
	1    0    0    -1  
$EndComp
Connection ~ 5900 3250
Wire Wire Line
	5900 3250 6100 3250
Wire Wire Line
	9200 1900 9500 1900
$EndSCHEMATC
