EESchema Schematic File Version 4
EELAYER 30 0
EELAYER END
$Descr A4 11693 8268
encoding utf-8
Sheet 1 8
Title ""
Date ""
Rev ""
Comp ""
Comment1 ""
Comment2 ""
Comment3 ""
Comment4 ""
$EndDescr
$Comp
L power:+5V #PWR0103
U 1 1 5DB5AD30
P 1800 4650
F 0 "#PWR0103" H 1800 4500 50  0001 C CNN
F 1 "+5V" V 1815 4778 50  0000 L CNN
F 2 "" H 1800 4650 50  0001 C CNN
F 3 "" H 1800 4650 50  0001 C CNN
	1    1800 4650
	0    1    1    0   
$EndComp
$Comp
L power:GND #PWR0105
U 1 1 5DB5B188
P 4350 4550
F 0 "#PWR0105" H 4350 4300 50  0001 C CNN
F 1 "GND" H 4355 4377 50  0000 C CNN
F 2 "" H 4350 4550 50  0001 C CNN
F 3 "" H 4350 4550 50  0001 C CNN
	1    4350 4550
	1    0    0    -1  
$EndComp
$Comp
L power:GND #PWR0107
U 1 1 5DB5BA93
P 6050 4350
F 0 "#PWR0107" H 6050 4100 50  0001 C CNN
F 1 "GND" H 6055 4177 50  0000 C CNN
F 2 "" H 6050 4350 50  0001 C CNN
F 3 "" H 6050 4350 50  0001 C CNN
	1    6050 4350
	1    0    0    -1  
$EndComp
Wire Wire Line
	5950 4200 6050 4200
Wire Wire Line
	6050 4200 6050 4350
Wire Wire Line
	4350 4200 4350 4550
Wire Wire Line
	4050 4200 4350 4200
Wire Wire Line
	3850 3800 3850 3500
Wire Wire Line
	3850 3500 4600 3500
Wire Wire Line
	4600 3500 4600 4700
Wire Wire Line
	4600 4700 4850 4700
Wire Wire Line
	4850 4700 4850 4600
$Comp
L power:GND #PWR0102
U 1 1 5DB9F194
P 1300 5600
F 0 "#PWR0102" H 1300 5350 50  0001 C CNN
F 1 "GND" V 1305 5472 50  0000 R CNN
F 2 "" H 1300 5600 50  0001 C CNN
F 3 "" H 1300 5600 50  0001 C CNN
	1    1300 5600
	0    -1   -1   0   
$EndComp
$Comp
L power:GND #PWR0101
U 1 1 5DBCA8DB
P 1200 7300
F 0 "#PWR0101" H 1200 7050 50  0001 C CNN
F 1 "GND" H 1205 7127 50  0000 C CNN
F 2 "" H 1200 7300 50  0001 C CNN
F 3 "" H 1200 7300 50  0001 C CNN
	1    1200 7300
	1    0    0    -1  
$EndComp
Wire Wire Line
	1500 1100 1300 1100
Wire Wire Line
	1300 1100 1300 850 
Wire Wire Line
	1650 1300 1650 1100
Wire Wire Line
	1650 1100 1800 1100
Wire Wire Line
	1800 1100 1800 850 
Wire Wire Line
	1800 1300 1800 1200
Wire Wire Line
	1800 1200 1900 1200
Wire Wire Line
	1900 1200 1900 850 
Wire Wire Line
	1900 850  2000 850 
Wire Wire Line
	1950 1300 1950 1050
Wire Wire Line
	1950 1050 2500 1050
Wire Wire Line
	2500 1050 2500 850 
Wire Wire Line
	3550 1100 3350 1100
Wire Wire Line
	3350 1100 3350 850 
Wire Wire Line
	3700 1100 3850 1100
Wire Wire Line
	3950 850  4050 850 
Wire Wire Line
	4000 1050 4550 1050
Wire Wire Line
	4550 1050 4550 850 
$Comp
L Motor:Motor_DC M106
U 1 1 5DCB8BF1
P 6300 850
F 0 "M106" V 6005 800 50  0000 C CNN
F 1 "Motor_DC" V 6096 800 50  0000 C CNN
F 2 "Connector_JST:JST_XH_B2B-XH-A_1x02_P2.50mm_Vertical" H 6300 760 50  0001 C CNN
F 3 "~" H 6300 760 50  0001 C CNN
F 4 "B2B-XH-A(LF)(SN)" H 6300 850 50  0001 C CNN "MPN"
	1    6300 850 
	0    -1   1    0   
$EndComp
Wire Wire Line
	5600 1100 5400 1100
Wire Wire Line
	5400 1100 5400 850 
Wire Wire Line
	5750 1100 5900 1100
Wire Wire Line
	5900 1100 5900 850 
Wire Wire Line
	5900 1200 6000 1200
Wire Wire Line
	6000 1200 6000 850 
Wire Wire Line
	6000 850  6100 850 
Wire Wire Line
	6050 1050 6600 1050
Wire Wire Line
	6600 1050 6600 850 
$Comp
L Motor:Motor_DC M108
U 1 1 5DCBC016
P 8350 900
F 0 "M108" V 8055 850 50  0000 C CNN
F 1 "Motor_DC" V 8146 850 50  0000 C CNN
F 2 "Connector_JST:JST_XH_B2B-XH-A_1x02_P2.50mm_Vertical" H 8350 810 50  0001 C CNN
F 3 "~" H 8350 810 50  0001 C CNN
F 4 "B2B-XH-A(LF)(SN)" H 8350 900 50  0001 C CNN "MPN"
	1    8350 900 
	0    -1   1    0   
$EndComp
Wire Wire Line
	7450 1150 7450 900 
Wire Wire Line
	7950 1150 7950 900 
Wire Wire Line
	8650 1100 8650 900 
Wire Wire Line
	10450 3650 10650 3650
Wire Wire Line
	2950 3800 2950 2950
Wire Wire Line
	3050 3800 3050 2850
Wire Wire Line
	3150 3800 3150 2750
Wire Wire Line
	3150 2750 2100 2750
Wire Wire Line
	3250 3800 3250 2650
Wire Wire Line
	3250 2650 2250 2650
Wire Wire Line
	3350 3800 3350 2650
Wire Wire Line
	3450 3800 3450 2750
Wire Wire Line
	3550 3800 3550 2850
Wire Wire Line
	3550 2850 4150 2850
Wire Wire Line
	3650 3800 3650 2950
Wire Wire Line
	3650 2950 4300 2950
Wire Wire Line
	4850 3800 4850 2950
Wire Wire Line
	4950 3800 4950 3050
Wire Wire Line
	4950 3050 5650 3050
Wire Wire Line
	5050 3800 5050 3200
Wire Wire Line
	5050 3200 6200 3200
Wire Wire Line
	5150 3800 5150 3350
Wire Wire Line
	5250 3800 5250 3450
Wire Wire Line
	5250 3450 6550 3450
Wire Wire Line
	6550 3450 6550 2700
Wire Wire Line
	5350 3800 5350 3550
Wire Wire Line
	5350 3550 6700 3550
Wire Wire Line
	6700 3550 6700 2800
Wire Wire Line
	5450 3800 5450 3650
Wire Wire Line
	5450 3650 6850 3650
Wire Wire Line
	6850 3650 6850 2900
Wire Wire Line
	5550 3800 5550 3750
Wire Wire Line
	5550 3750 7050 3750
Wire Wire Line
	7050 3750 7050 2950
$Comp
L Connector_Generic:Conn_01x02 J112
U 1 1 5DD7E94E
P 11000 5450
F 0 "J112" V 10705 5400 50  0000 C CNN
F 1 "GPIO" V 10796 5400 50  0000 C CNN
F 2 "Connector_JST:JST_XH_B2B-XH-A_1x02_P2.50mm_Vertical" H 11000 5360 50  0001 C CNN
F 3 "~" H 11000 5360 50  0001 C CNN
F 4 "B2B-XH-A(LF)(SN)" H 11000 5450 50  0001 C CNN "MPN"
	1    11000 5450
	1    0    0    -1  
$EndComp
Wire Wire Line
	10500 4750 10500 4550
Wire Wire Line
	10500 4550 10750 4550
Wire Wire Line
	10500 4900 10500 5050
Wire Wire Line
	10500 5050 10750 5050
$Comp
L Motor:Motor_DC M110
U 1 1 5DCC812E
P 10650 3350
F 0 "M110" V 10355 3300 50  0000 C CNN
F 1 "Motor_DC" V 10446 3300 50  0000 C CNN
F 2 "Connector_JST:JST_XH_B2B-XH-A_1x02_P2.50mm_Vertical" H 10650 3260 50  0001 C CNN
F 3 "~" H 10650 3260 50  0001 C CNN
F 4 "B2B-XH-A(LF)(SN)" H 10650 3350 50  0001 C CNN "MPN"
	1    10650 3350
	1    0    0    -1  
$EndComp
$Comp
L Motor:Motor_DC M109
U 1 1 5DCC8128
P 10650 2750
F 0 "M109" V 10945 2700 50  0000 C CNN
F 1 "Motor_DC" V 10854 2700 50  0000 C CNN
F 2 "Connector_JST:JST_XH_B2B-XH-A_1x02_P2.50mm_Vertical" H 10650 2660 50  0001 C CNN
F 3 "~" H 10650 2660 50  0001 C CNN
F 4 "B2B-XH-A(LF)(SN)" H 10650 2750 50  0001 C CNN "MPN"
	1    10650 2750
	-1   0    0    1   
$EndComp
$Comp
L 74xx:74HC595 U103
U 1 1 5DDD3F8B
P 7350 4400
F 0 "U103" V 7396 3656 50  0000 R CNN
F 1 "74HC595" V 7305 3656 50  0000 R CNN
F 2 "Package_SO:SOIC-16_3.9x9.9mm_P1.27mm" H 7350 4400 50  0001 C CNN
F 3 "http://file.elecfans.com/web1/M00/9F/42/pIYBAF1AqaOAbuSOAARYJ1dcv7Y377.pdf" H 7350 4400 50  0001 C CNN
F 4 "74HC595D,118" V 7350 4400 50  0001 C CNN "MPN"
	1    7350 4400
	1    0    0    -1  
$EndComp
$Comp
L power:GND #PWR0108
U 1 1 5DDD3F95
P 7200 5200
F 0 "#PWR0108" H 7200 4950 50  0001 C CNN
F 1 "GND" H 7205 5027 50  0000 C CNN
F 2 "" H 7200 5200 50  0001 C CNN
F 3 "" H 7200 5200 50  0001 C CNN
	1    7200 5200
	0    1    1    0   
$EndComp
Wire Wire Line
	7350 5100 7350 5200
Wire Wire Line
	7350 5200 7200 5200
Wire Wire Line
	7750 4000 8650 4000
Wire Wire Line
	7750 4100 8750 4100
Wire Wire Line
	7750 4200 8900 4200
Wire Wire Line
	7750 4300 9000 4300
Wire Wire Line
	7750 4400 8900 4400
Wire Wire Line
	8900 4400 8900 4750
Wire Wire Line
	7750 4500 8800 4500
Wire Wire Line
	7750 4600 8700 4600
Wire Wire Line
	7750 4700 8550 4700
Wire Wire Line
	8550 4700 8550 5400
Wire Wire Line
	6750 550  6750 1150
Connection ~ 6750 550 
Wire Wire Line
	2650 1150 2400 1150
Wire Wire Line
	2400 1150 2400 1300
Connection ~ 2650 550 
Wire Wire Line
	4000 3100 1950 3100
Connection ~ 1950 3100
Wire Wire Line
	1950 3300 1950 3100
Wire Wire Line
	8100 3100 8100 3250
$Comp
L power:PWR_FLAG #FLG0101
U 1 1 5E168192
P 1800 4650
F 0 "#FLG0101" H 1800 4725 50  0001 C CNN
F 1 "PWR_FLAG" H 1800 4823 50  0000 C CNN
F 2 "" H 1800 4650 50  0001 C CNN
F 3 "~" H 1800 4650 50  0001 C CNN
	1    1800 4650
	1    0    0    -1  
$EndComp
Wire Wire Line
	2100 2100 2100 2750
Wire Wire Line
	2250 2100 2250 2650
Wire Wire Line
	1950 2100 1950 3100
Wire Wire Line
	1950 3300 2300 3300
Wire Wire Line
	6750 550  8850 550 
$Sheet
S 3150 1300 1400 800 
U 5E121B47
F0 "MOTOR-DRIVER2" 50
F1 "motordriver.sch" 50
F2 "A01" O T 3550 1300 50 
F3 "AO2" O T 3700 1300 50 
F4 "BO2" O T 3850 1300 50 
F5 "BO1" O T 4000 1300 50 
F6 "AIN2" I B 3700 2100 50 
F7 "AIN1" I B 3600 2100 50 
F8 "STBY" I B 4000 2100 50 
F9 "BIN1" I B 4150 2100 50 
F10 "BIN2" I B 4300 2100 50 
F11 "VM" I T 4450 1300 50 
$EndSheet
Wire Wire Line
	4800 1150 4450 1150
Connection ~ 4800 550 
Wire Wire Line
	4800 550  4800 1150
$Sheet
S 1100 1300 1400 800 
U 5DE9EB07
F0 "MOTOR-DRIVER1" 50
F1 "motordriver.sch" 50
F2 "A01" O T 1500 1300 50 
F3 "AO2" O T 1650 1300 50 
F4 "BO2" O T 1800 1300 50 
F5 "BO1" O T 1950 1300 50 
F6 "AIN2" I B 1650 2100 50 
F7 "AIN1" I B 1550 2100 50 
F8 "STBY" I B 1950 2100 50 
F9 "BIN1" I B 2100 2100 50 
F10 "BIN2" I B 2250 2100 50 
F11 "VM" I T 2400 1300 50 
$EndSheet
$Sheet
S 5200 1350 1400 800 
U 5DEA75B1
F0 "MOTOR-DRIVER3" 50
F1 "motordriver.sch" 50
F2 "A01" O T 5600 1350 50 
F3 "AO2" O T 5750 1350 50 
F4 "BO2" O T 5900 1350 50 
F5 "BO1" O T 6050 1350 50 
F6 "AIN2" I B 5750 2150 50 
F7 "AIN1" I B 5650 2150 50 
F8 "STBY" I B 6050 2150 50 
F9 "BIN1" I B 6200 2150 50 
F10 "BIN2" I B 6350 2150 50 
F11 "VM" I T 6500 1350 50 
$EndSheet
$Sheet
S 7300 1350 1400 800 
U 5DEAE196
F0 "MOTOR-DRIVER4" 50
F1 "motordriver.sch" 50
F2 "A01" O T 7700 1350 50 
F3 "AO2" O T 7850 1350 50 
F4 "BO2" O T 8000 1350 50 
F5 "BO1" O T 8150 1350 50 
F6 "AIN2" I B 7850 2150 50 
F7 "AIN1" I B 7750 2150 50 
F8 "STBY" I B 8150 2150 50 
F9 "BIN1" I B 8300 2150 50 
F10 "BIN2" I B 8450 2150 50 
F11 "VM" I T 8600 1350 50 
$EndSheet
$Sheet
S 9350 2400 800  1400
U 5DEB5B93
F0 "MOTOR-DRIVER5" 50
F1 "motordriver.sch" 50
F2 "A01" O R 10150 2800 50 
F3 "AO2" O R 10150 2950 50 
F4 "BO2" O R 10150 3100 50 
F5 "BO1" O R 10150 3250 50 
F6 "AIN2" I L 9350 2950 50 
F7 "AIN1" I L 9350 2850 50 
F8 "STBY" I L 9350 3250 50 
F9 "BIN1" I L 9350 3400 50 
F10 "BIN2" I L 9350 3550 50 
F11 "VM" I R 10150 3700 50 
$EndSheet
Wire Wire Line
	3700 1100 3700 1300
Wire Wire Line
	3850 1100 3850 850 
Wire Wire Line
	3950 1200 3850 1200
Wire Wire Line
	3850 1200 3850 1300
Wire Wire Line
	3950 850  3950 1200
Wire Wire Line
	4000 1300 4000 1050
Wire Wire Line
	4450 1150 4450 1300
Wire Wire Line
	3450 2750 3600 2750
Wire Wire Line
	4000 3100 4000 2100
Wire Wire Line
	4150 2850 4150 2100
Wire Wire Line
	4300 2950 4300 2100
Wire Wire Line
	5750 1350 5750 1100
Wire Wire Line
	5900 1350 5900 1200
Wire Wire Line
	6050 1350 6050 1050
Wire Wire Line
	6050 2150 6050 3300
Connection ~ 6050 3300
Wire Wire Line
	6200 2150 6200 3200
Wire Wire Line
	6350 2150 6350 3350
Wire Wire Line
	5150 3350 6350 3350
$Comp
L power:+5V #PWR0104
U 1 1 5DF916BF
P 2750 4200
F 0 "#PWR0104" H 2750 4050 50  0001 C CNN
F 1 "+5V" H 2765 4373 50  0000 C CNN
F 2 "" H 2750 4200 50  0001 C CNN
F 3 "" H 2750 4200 50  0001 C CNN
	1    2750 4200
	1    0    0    -1  
$EndComp
$Comp
L power:+5V #PWR0106
U 1 1 5DF92761
P 4650 4200
F 0 "#PWR0106" H 4650 4050 50  0001 C CNN
F 1 "+5V" H 4665 4373 50  0000 C CNN
F 2 "" H 4650 4200 50  0001 C CNN
F 3 "" H 4650 4200 50  0001 C CNN
	1    4650 4200
	1    0    0    -1  
$EndComp
$Comp
L power:+5V #PWR0109
U 1 1 5DF933EF
P 7350 3800
F 0 "#PWR0109" H 7350 3650 50  0001 C CNN
F 1 "+5V" H 7365 3973 50  0000 C CNN
F 2 "" H 7350 3800 50  0001 C CNN
F 3 "" H 7350 3800 50  0001 C CNN
	1    7350 3800
	1    0    0    -1  
$EndComp
Wire Wire Line
	5750 3800 6950 3800
Wire Wire Line
	6950 3800 6950 4000
Wire Wire Line
	8150 2150 8150 3100
Wire Wire Line
	8150 3100 8100 3100
Wire Wire Line
	7700 1350 7700 1150
Wire Wire Line
	7450 1150 7700 1150
Wire Wire Line
	7850 1350 7850 1150
Wire Wire Line
	7850 1150 7950 1150
Wire Wire Line
	8000 1350 8000 900 
Wire Wire Line
	8150 1350 8150 1100
Wire Wire Line
	8150 1100 8650 1100
Wire Wire Line
	8850 550  8850 1200
Wire Wire Line
	8850 1200 8600 1200
Wire Wire Line
	8600 1200 8600 1350
Connection ~ 8850 550 
Wire Wire Line
	8850 550  11100 550 
Wire Wire Line
	8300 2150 8300 2900
Wire Wire Line
	6850 2900 8300 2900
Wire Wire Line
	8450 2150 8450 2950
Wire Wire Line
	7050 2950 8450 2950
Wire Wire Line
	9350 3250 8100 3250
Wire Wire Line
	8100 3250 8100 3300
Connection ~ 8100 3250
Wire Wire Line
	8900 4200 8900 3400
Wire Wire Line
	8900 3400 9350 3400
Wire Wire Line
	9350 3550 9000 3550
Wire Wire Line
	9000 3550 9000 4300
Wire Wire Line
	10150 2800 10450 2800
Wire Wire Line
	10450 2800 10450 2450
Wire Wire Line
	10450 2450 10650 2450
Wire Wire Line
	10150 2950 10650 2950
Wire Wire Line
	10150 3100 10650 3100
Wire Wire Line
	10650 3100 10650 3150
Wire Wire Line
	10150 3250 10450 3250
Wire Wire Line
	10500 4750 8900 4750
Wire Wire Line
	10500 4900 8800 4900
Wire Wire Line
	8800 4500 8800 4900
Wire Wire Line
	10750 5150 8700 5150
Wire Wire Line
	8700 4600 8700 5150
Wire Wire Line
	10550 5400 8550 5400
Connection ~ 1800 4650
Connection ~ 2300 3300
Wire Wire Line
	2300 3300 6050 3300
Wire Wire Line
	11100 550  11100 3700
Text Label 1600 4950 0    50   ~ 0
~OE
Text Label 1600 5050 0    50   ~ 0
RCLK
Text Label 1600 5250 0    50   ~ 0
SCLK
Text Label 1600 5350 0    50   ~ 0
SERIN
Text Label 1600 5150 0    50   ~ 0
~SCLR
Text Label 1650 4750 0    50   ~ 0
MOTOR-ENABLE
Text Label 8000 6300 0    50   ~ 0
SEROUT
$Comp
L power:GND #PWR0111
U 1 1 5E1EAF95
P 8300 5700
F 0 "#PWR0111" H 8300 5450 50  0001 C CNN
F 1 "GND" V 8305 5572 50  0000 R CNN
F 2 "" H 8300 5700 50  0001 C CNN
F 3 "" H 8300 5700 50  0001 C CNN
	1    8300 5700
	0    1    1    0   
$EndComp
$Comp
L power:+5V #PWR0110
U 1 1 5E1ECEEB
P 8300 5600
F 0 "#PWR0110" H 8300 5450 50  0001 C CNN
F 1 "+5V" V 8315 5728 50  0000 L CNN
F 2 "" H 8300 5600 50  0001 C CNN
F 3 "" H 8300 5600 50  0001 C CNN
	1    8300 5600
	0    -1   -1   0   
$EndComp
Wire Wire Line
	1200 6850 1200 7200
$Comp
L 74xx:74HC595 U101
U 1 1 5DEEBD23
P 3350 4200
F 0 "U101" V 3396 3456 50  0000 R CNN
F 1 "74HC595" V 3305 3456 50  0000 R CNN
F 2 "Package_SO:SOIC-16_3.9x9.9mm_P1.27mm" H 3350 4200 50  0001 C CNN
F 3 "http://file.elecfans.com/web1/M00/9F/42/pIYBAF1AqaOAbuSOAARYJ1dcv7Y377.pdf" H 3350 4200 50  0001 C CNN
F 4 "74HC595D,118" V 3350 4200 50  0001 C CNN "MPN"
	1    3350 4200
	0    -1   -1   0   
$EndComp
$Comp
L 74xx:74HC595 U102
U 1 1 5DEECBE8
P 5250 4200
F 0 "U102" V 5296 3456 50  0000 R CNN
F 1 "74HC595" V 5205 3456 50  0000 R CNN
F 2 "Package_SO:SOIC-16_3.9x9.9mm_P1.27mm" H 5250 4200 50  0001 C CNN
F 3 "http://file.elecfans.com/web1/M00/9F/42/pIYBAF1AqaOAbuSOAARYJ1dcv7Y377.pdf" H 5250 4200 50  0001 C CNN
F 4 "74HC595D,118" V 5250 4200 50  0001 C CNN "MPN"
	1    5250 4200
	0    -1   -1   0   
$EndComp
$Comp
L power:PWR_FLAG #FLG0102
U 1 1 5DF98B15
P 1700 6500
F 0 "#FLG0102" H 1700 6575 50  0001 C CNN
F 1 "PWR_FLAG" H 1700 6673 50  0000 C CNN
F 2 "" H 1700 6500 50  0001 C CNN
F 3 "~" H 1700 6500 50  0001 C CNN
	1    1700 6500
	1    0    0    -1  
$EndComp
$Comp
L power:PWR_FLAG #FLG0103
U 1 1 5DFEE438
P 1200 7200
F 0 "#FLG0103" H 1200 7275 50  0001 C CNN
F 1 "PWR_FLAG" V 1200 7328 50  0000 L CNN
F 2 "" H 1200 7200 50  0001 C CNN
F 3 "~" H 1200 7200 50  0001 C CNN
	1    1200 7200
	0    1    1    0   
$EndComp
Connection ~ 1200 7200
Wire Wire Line
	1200 7200 1200 7300
Wire Wire Line
	11100 3700 10150 3700
Wire Wire Line
	10750 4550 10750 4750
Wire Wire Line
	10750 4750 10800 4750
Wire Wire Line
	10750 5050 10750 4850
Wire Wire Line
	10750 4850 10800 4850
Wire Wire Line
	10550 5400 10550 5750
Wire Wire Line
	10800 5750 10800 5550
Wire Wire Line
	10550 5750 10800 5750
Wire Wire Line
	10750 5450 10800 5450
Wire Wire Line
	10750 5150 10750 5450
$Comp
L Motor:Motor_DC M107
U 1 1 5DCBC010
P 7750 900
F 0 "M107" V 8045 850 50  0000 C CNN
F 1 "Motor_DC" V 7954 850 50  0000 C CNN
F 2 "Connector_JST:JST_XH_B2B-XH-A_1x02_P2.50mm_Vertical" H 7750 810 50  0001 C CNN
F 3 "~" H 7750 810 50  0001 C CNN
F 4 "B2B-XH-A(LF)(SN)" H 7750 900 50  0001 C CNN "MPN"
	1    7750 900 
	0    1    -1   0   
$EndComp
$Comp
L Motor:Motor_DC M105
U 1 1 5DCB8BEB
P 5700 850
F 0 "M105" V 5995 800 50  0000 C CNN
F 1 "Motor_DC" V 5904 800 50  0000 C CNN
F 2 "Connector_JST:JST_XH_B2B-XH-A_1x02_P2.50mm_Vertical" H 5700 760 50  0001 C CNN
F 3 "~" H 5700 760 50  0001 C CNN
F 4 "B2B-XH-A(LF)(SN)" H 5700 850 50  0001 C CNN "MPN"
	1    5700 850 
	0    1    -1   0   
$EndComp
$Comp
L Motor:Motor_DC M101
U 1 1 5DBBD591
P 1600 850
F 0 "M101" V 1895 800 50  0000 C CNN
F 1 "Motor_DC" V 1804 800 50  0000 C CNN
F 2 "Connector_JST:JST_XH_B2B-XH-A_1x02_P2.50mm_Vertical" H 1600 760 50  0001 C CNN
F 3 "~" H 1600 760 50  0001 C CNN
F 4 "B2B-XH-A(LF)(SN)" H 1600 850 50  0001 C CNN "MPN"
	1    1600 850 
	0    1    -1   0   
$EndComp
$Comp
L Connector_Generic:Conn_01x02 J104
U 1 1 5E112FFD
P 11000 4750
F 0 "J104" V 10705 4700 50  0000 C CNN
F 1 "GPIO" H 10796 4700 50  0000 C CNN
F 2 "Connector_JST:JST_XH_B2B-XH-A_1x02_P2.50mm_Vertical" H 11000 4660 50  0001 C CNN
F 3 "~" H 11000 4660 50  0001 C CNN
F 4 "B2B-XH-A(LF)(SN)" H 11000 4750 50  0001 C CNN "MPN"
	1    11000 4750
	1    0    0    -1  
$EndComp
Wire Wire Line
	7850 2700 7850 2150
Wire Wire Line
	6550 2700 7850 2700
Wire Wire Line
	7750 2800 7750 2150
Wire Wire Line
	6700 2800 7750 2800
Wire Wire Line
	5750 2950 5750 2150
Wire Wire Line
	4850 2950 5750 2950
Wire Wire Line
	5650 2150 5650 3050
Wire Wire Line
	3700 2650 3700 2100
Wire Wire Line
	3350 2650 3700 2650
Wire Wire Line
	3600 2100 3600 2750
Wire Wire Line
	1550 2850 1550 2100
Wire Wire Line
	1550 2850 3050 2850
Wire Wire Line
	1650 2100 1650 2950
Wire Wire Line
	1650 2950 2950 2950
Wire Wire Line
	8750 2850 9350 2850
Wire Wire Line
	8750 2850 8750 4100
Wire Wire Line
	9350 2950 8650 2950
Wire Wire Line
	8650 2950 8650 4000
Wire Wire Line
	5600 1100 5600 1350
Wire Wire Line
	3550 1100 3550 1300
Wire Wire Line
	6500 1350 6500 1150
Wire Wire Line
	6500 1150 6750 1150
Wire Wire Line
	1500 1100 1500 1300
Wire Wire Line
	7750 6300 8300 6300
Wire Wire Line
	7750 4900 7750 6300
Text Label 3550 4600 3    50   ~ 0
~OE
Text Label 3450 4600 3    50   ~ 0
RCLK
Text Label 3250 4600 3    50   ~ 0
~SCLR
Text Label 3150 4600 3    50   ~ 0
SCLK
Wire Wire Line
	2950 5350 2950 4600
Text Label 5450 4600 3    50   ~ 0
~OE
Text Label 5350 4600 3    50   ~ 0
RCLK
Text Label 5150 4600 3    50   ~ 0
~SCLR
Text Label 5050 4600 3    50   ~ 0
SCLK
Text Label 6950 4600 2    50   ~ 0
~OE
Text Label 6950 4500 2    50   ~ 0
RCLK
Text Label 6950 4300 2    50   ~ 0
~SCLR
Text Label 6950 4200 2    50   ~ 0
SCLK
Text Label 8300 5900 2    50   ~ 0
~OE
Text Label 8300 6000 2    50   ~ 0
RCLK
Text Label 8300 6100 2    50   ~ 0
~SCLR
Text Label 8300 6200 2    50   ~ 0
SCLK
Wire Wire Line
	650  550  2650 550 
Wire Wire Line
	2650 550  4800 550 
Wire Wire Line
	4800 550  6750 550 
Wire Wire Line
	8000 900  8150 900 
$Comp
L Motor:Motor_DC M103
U 1 1 5DCB371A
P 3650 850
F 0 "M103" V 3945 800 50  0000 C CNN
F 1 "Motor_DC" V 3854 800 50  0000 C CNN
F 2 "Connector_JST:JST_XH_B2B-XH-A_1x02_P2.50mm_Vertical" H 3650 760 50  0001 C CNN
F 3 "~" H 3650 760 50  0001 C CNN
F 4 "B2B-XH-A(LF)(SN)" H 3650 850 50  0001 C CNN "MPN"
	1    3650 850 
	0    1    -1   0   
$EndComp
Wire Wire Line
	2650 550  2650 1150
$Comp
L Motor:Motor_DC M104
U 1 1 5DCB3720
P 4250 850
F 0 "M104" V 3955 800 50  0000 C CNN
F 1 "Motor_DC" V 4046 800 50  0000 C CNN
F 2 "Connector_JST:JST_XH_B2B-XH-A_1x02_P2.50mm_Vertical" H 4250 760 50  0001 C CNN
F 3 "~" H 4250 760 50  0001 C CNN
F 4 "B2B-XH-A(LF)(SN)" H 4250 850 50  0001 C CNN "MPN"
	1    4250 850 
	0    -1   1    0   
$EndComp
$Comp
L Motor:Motor_DC M102
U 1 1 5DBC1858
P 2200 850
F 0 "M102" V 1905 800 50  0000 C CNN
F 1 "Motor_DC" V 1996 800 50  0000 C CNN
F 2 "Connector_JST:JST_XH_B2B-XH-A_1x02_P2.50mm_Vertical" H 2200 760 50  0001 C CNN
F 3 "~" H 2200 760 50  0001 C CNN
F 4 "B2B-XH-A(LF)(SN)" H 2200 850 50  0001 C CNN "MPN"
	1    2200 850 
	0    -1   1    0   
$EndComp
Wire Wire Line
	10450 3250 10450 3650
Wire Wire Line
	1200 6750 1300 6750
Wire Wire Line
	1650 6750 1650 6500
Wire Wire Line
	1650 6500 1700 6500
Wire Wire Line
	1200 6850 2150 6850
Wire Wire Line
	5150 5700 650  5700
Connection ~ 1700 6500
Wire Wire Line
	1700 6500 2150 6500
Wire Wire Line
	650  550  650  5700
$Comp
L Device:Polyfuse_Small F101
U 1 1 5E570F4A
P 4250 6300
F 0 "F101" V 4045 6300 50  0000 C CNN
F 1 "Polyfuse_Small" V 4136 6300 50  0000 C CNN
F 2 "Fuse:Fuse_1812_4532Metric" H 4300 6100 50  0001 L CNN
F 3 "http://file.elecfans.com/web1/M00/9A/7C/pIYBAF0etSSAPHYVAAEtk7s-mFY591.pdf?filename=mSMD260_SEA%26LAND.pdf" H 4250 6300 50  0001 C CNN
F 4 "mSMD260-16V" H 4250 6300 50  0001 C CNN "MPN"
	1    4250 6300
	0    1    1    0   
$EndComp
$Comp
L power:+5V #PWR0112
U 1 1 5E586870
P 4350 6300
F 0 "#PWR0112" H 4350 6150 50  0001 C CNN
F 1 "+5V" V 4365 6428 50  0000 L CNN
F 2 "" H 4350 6300 50  0001 C CNN
F 3 "" H 4350 6300 50  0001 C CNN
	1    4350 6300
	0    1    1    0   
$EndComp
$Comp
L Connector_Generic:Conn_01x02 J105
U 1 1 5E59111C
P 4650 6800
F 0 "J105" H 4650 6950 50  0000 C CNN
F 1 "8Vout" H 4650 6900 50  0000 C CNN
F 2 "Connector_JST:JST_XH_B2B-XH-A_1x02_P2.50mm_Vertical" H 4700 6760 50  0001 C CNN
F 3 "http://file.elecfans.com/web1/M00/56/15/o4YBAFs5_nWAUBJDAAL1gKEngnA898.pdf" H 4700 6760 50  0001 C CNN
F 4 "B2B-XH-A(LF)(SN)" H 4650 6800 50  0001 C CNN "MPN"
	1    4650 6800
	1    0    0    -1  
$EndComp
Wire Wire Line
	4150 6800 4450 6800
$Comp
L power:GND #PWR0114
U 1 1 5E5D34C4
P 4450 6900
F 0 "#PWR0114" H 4450 6650 50  0001 C CNN
F 1 "GND" H 4455 6727 50  0000 C CNN
F 2 "" H 4450 6900 50  0001 C CNN
F 3 "" H 4450 6900 50  0001 C CNN
	1    4450 6900
	1    0    0    -1  
$EndComp
Wire Wire Line
	5150 5700 5150 6550
Text Label 1300 6750 0    50   ~ 0
Vin
Text Notes 900  6400 0    50   ~ 0
12V-20V
$Sheet
S 2150 6200 2000 1250
U 5E4EA754
F0 "power" 50
F1 "power.sch" 50
F2 "Vin" I L 2150 6500 50 
F3 "GND" I L 2150 6850 50 
F4 "5v" O R 4150 6300 50 
F5 "6v" O R 4150 6550 50 
F6 "8v" O R 4150 6800 50 
$EndSheet
$Comp
L Connector:Screw_Terminal_01x02 J101
U 1 1 5E704EA6
P 1000 6200
F 0 "J101" H 918 5875 50  0000 C CNN
F 1 "Vout" H 918 5966 50  0000 C CNN
F 2 "TerminalBlock_Phoenix:TerminalBlock_Phoenix_PT-1,5-2-5.0-H_1x02_P5.00mm_Horizontal" H 1000 6200 50  0001 C CNN
F 3 "https://media.digikey.com/pdf/Data%20Sheets/Phoenix%20Contact%20PDFs/1935161.pdf" H 1000 6200 50  0001 C CNN
F 4 "1935161" H 1000 6200 50  0001 C CNN "MPN"
	1    1000 6200
	-1   0    0    1   
$EndComp
Wire Wire Line
	1300 6750 1300 6200
Wire Wire Line
	1300 6200 1200 6200
Connection ~ 1300 6750
Wire Wire Line
	1300 6750 1650 6750
$Comp
L power:GND #PWR0119
U 1 1 5E71AEB2
P 1400 6050
F 0 "#PWR0119" H 1400 5800 50  0001 C CNN
F 1 "GND" H 1405 5877 50  0000 C CNN
F 2 "" H 1400 6050 50  0001 C CNN
F 3 "" H 1400 6050 50  0001 C CNN
	1    1400 6050
	-1   0    0    1   
$EndComp
Wire Wire Line
	1200 6100 1400 6100
Wire Wire Line
	1400 6100 1400 6050
Wire Wire Line
	4150 6550 5150 6550
$Comp
L Connector:Screw_Terminal_01x02 J106
U 1 1 5E76D82F
P 1000 6850
F 0 "J106" H 918 6525 50  0000 C CNN
F 1 "Vin" H 918 6616 50  0000 C CNN
F 2 "TerminalBlock_Phoenix:TerminalBlock_Phoenix_PT-1,5-2-5.0-H_1x02_P5.00mm_Horizontal" H 1000 6850 50  0001 C CNN
F 3 "https://media.digikey.com/pdf/Data%20Sheets/Phoenix%20Contact%20PDFs/1935161.pdf" H 1000 6850 50  0001 C CNN
F 4 "1935161" H 1000 6850 50  0001 C CNN "MPN"
	1    1000 6850
	-1   0    0    1   
$EndComp
Connection ~ 1200 6850
$Sheet
S 700  4500 550  1050
U 5E7C6281
F0 "rpi" 50
F1 "rpi.sch" 50
F2 "5v" I R 1250 4600 50 
F3 "GPIO26" O R 1250 4750 50 
F4 "GPIO6" O R 1250 5150 50 
F5 "GPIO5" O R 1250 5250 50 
F6 "GPIO13" O R 1250 5050 50 
F7 "GPIO0" O R 1250 5350 50 
F8 "GPIO12" I R 1250 5450 50 
F9 "GPIO16" O L 700 4600 50 
F10 "GPIO10" O R 1250 4850 50 
$EndSheet
Wire Wire Line
	1300 4650 1300 4600
Wire Wire Line
	1300 4600 1250 4600
Wire Wire Line
	2300 3300 2300 4750
Wire Wire Line
	1300 4650 1800 4650
Wire Wire Line
	1600 4950 1400 4950
Wire Wire Line
	1400 4950 1400 4850
Wire Wire Line
	1400 4850 1250 4850
Wire Wire Line
	1250 5050 1600 5050
Wire Wire Line
	1250 5150 1600 5150
Wire Wire Line
	1250 5250 1600 5250
Wire Wire Line
	1250 5350 2950 5350
Wire Wire Line
	6050 3300 8100 3300
$Comp
L Connector_Generic:Conn_01x01 J102
U 1 1 5E8B7C64
P 8500 6300
F 0 "J102" H 8580 6342 50  0000 L CNN
F 1 "Conn_01x01" H 8580 6251 50  0000 L CNN
F 2 "TestPoint:TestPoint_Pad_1.0x1.0mm" H 8500 6300 50  0001 C CNN
F 3 "~" H 8500 6300 50  0001 C CNN
	1    8500 6300
	1    0    0    -1  
$EndComp
Wire Wire Line
	1250 4750 2300 4750
$Comp
L serial-motor-driver:HX711-module U104
U 1 1 5E8F0930
P 6250 5700
F 0 "U104" H 6175 5775 50  0000 C CNN
F 1 "HX711-module" H 6175 5684 50  0000 C CNN
F 2 "serial-motor-driver:HX711-module" H 6200 5700 50  0001 C CNN
F 3 "https://www.diymore.cc/products/dual-channel-24-bit-a-d-conversion-hx711-load-cell-amplifier-breakout-board" H 6200 5700 50  0001 C CNN
	1    6250 5700
	1    0    0    -1  
$EndComp
$Comp
L power:+5V #PWR0113
U 1 1 5E8F36B9
P 5800 5850
F 0 "#PWR0113" H 5800 5700 50  0001 C CNN
F 1 "+5V" V 5815 5978 50  0000 L CNN
F 2 "" H 5800 5850 50  0001 C CNN
F 3 "" H 5800 5850 50  0001 C CNN
	1    5800 5850
	0    -1   -1   0   
$EndComp
$Comp
L power:GND #PWR0120
U 1 1 5E93187F
P 5800 5950
F 0 "#PWR0120" H 5800 5700 50  0001 C CNN
F 1 "GND" V 5805 5822 50  0000 R CNN
F 2 "" H 5800 5950 50  0001 C CNN
F 3 "" H 5800 5950 50  0001 C CNN
	1    5800 5950
	0    1    1    0   
$EndComp
Wire Wire Line
	1250 5450 5500 5450
Wire Wire Line
	5500 5450 5500 6050
Wire Wire Line
	5500 6050 5800 6050
Wire Wire Line
	5800 6150 5300 6150
Wire Wire Line
	5300 6150 5300 5800
Wire Wire Line
	5300 5800 550  5800
Wire Wire Line
	550  5800 550  4600
Wire Wire Line
	550  4600 700  4600
$Comp
L Connector_Generic:Conn_01x02 J103
U 1 1 5E9730DD
P 7200 5800
F 0 "J103" V 6905 5750 50  0000 C CNN
F 1 "power" V 6996 5750 50  0000 C CNN
F 2 "Connector_JST:JST_XH_B2B-XH-A_1x02_P2.50mm_Vertical" H 7200 5710 50  0001 C CNN
F 3 "~" H 7200 5710 50  0001 C CNN
F 4 "B2B-XH-A(LF)(SN)" H 7200 5800 50  0001 C CNN "MPN"
	1    7200 5800
	1    0    0    1   
$EndComp
$Comp
L Connector_Generic:Conn_01x02 J107
U 1 1 5E9736F6
P 7200 6050
F 0 "J107" V 6905 6000 50  0000 C CNN
F 1 "A" V 6996 6000 50  0000 C CNN
F 2 "Connector_JST:JST_XH_B2B-XH-A_1x02_P2.50mm_Vertical" H 7200 5960 50  0001 C CNN
F 3 "~" H 7200 5960 50  0001 C CNN
F 4 "B2B-XH-A(LF)(SN)" H 7200 6050 50  0001 C CNN "MPN"
	1    7200 6050
	1    0    0    -1  
$EndComp
$Comp
L Connector_Generic:Conn_01x02 J108
U 1 1 5E973A27
P 7200 6300
F 0 "J108" V 6905 6250 50  0000 C CNN
F 1 "B" V 6996 6250 50  0000 C CNN
F 2 "Connector_JST:JST_XH_B2B-XH-A_1x02_P2.50mm_Vertical" H 7200 6210 50  0001 C CNN
F 3 "~" H 7200 6210 50  0001 C CNN
F 4 "B2B-XH-A(LF)(SN)" H 7200 6300 50  0001 C CNN "MPN"
	1    7200 6300
	1    0    0    -1  
$EndComp
Wire Wire Line
	6650 5850 7000 5850
Wire Wire Line
	7000 5850 7000 5800
Wire Wire Line
	5850 5700 7000 5700
Wire Wire Line
	6650 5950 6850 5950
Wire Wire Line
	6850 5950 6850 6050
Wire Wire Line
	6850 6050 7000 6050
Wire Wire Line
	6650 6050 6800 6050
Wire Wire Line
	6800 6050 6800 6150
Wire Wire Line
	6800 6150 7000 6150
Wire Wire Line
	6650 6150 6750 6150
Wire Wire Line
	6750 6150 6750 6300
Wire Wire Line
	6750 6300 7000 6300
Wire Wire Line
	6650 6250 6650 6400
Wire Wire Line
	6650 6400 7000 6400
Wire Wire Line
	5850 5700 5850 5950
Wire Wire Line
	5800 5950 5850 5950
Connection ~ 5800 5950
$Comp
L Mechanical:MountingHole H101
U 1 1 5EA5C698
P 5300 7250
F 0 "H101" H 5400 7296 50  0000 L CNN
F 1 "MountingHole" H 5400 7205 50  0000 L CNN
F 2 "MountingHole:MountingHole_2.7mm_M2.5" H 5300 7250 50  0001 C CNN
F 3 "~" H 5300 7250 50  0001 C CNN
	1    5300 7250
	1    0    0    -1  
$EndComp
$Comp
L Mechanical:MountingHole H103
U 1 1 5EA5CABB
P 5550 7250
F 0 "H103" H 5650 7296 50  0000 L CNN
F 1 "MountingHole" H 5650 7205 50  0000 L CNN
F 2 "MountingHole:MountingHole_2.7mm_M2.5" H 5550 7250 50  0001 C CNN
F 3 "~" H 5550 7250 50  0001 C CNN
	1    5550 7250
	1    0    0    -1  
$EndComp
$Comp
L Mechanical:MountingHole H105
U 1 1 5EA5CDB8
P 5800 7250
F 0 "H105" H 5900 7296 50  0000 L CNN
F 1 "MountingHole" H 5900 7205 50  0000 L CNN
F 2 "MountingHole:MountingHole_2.7mm_M2.5" H 5800 7250 50  0001 C CNN
F 3 "~" H 5800 7250 50  0001 C CNN
	1    5800 7250
	1    0    0    -1  
$EndComp
$Comp
L Mechanical:MountingHole H102
U 1 1 5EA5D121
P 5450 7450
F 0 "H102" H 5550 7496 50  0000 L CNN
F 1 "MountingHole" H 5550 7405 50  0000 L CNN
F 2 "MountingHole:MountingHole_2.7mm_M2.5" H 5450 7450 50  0001 C CNN
F 3 "~" H 5450 7450 50  0001 C CNN
	1    5450 7450
	1    0    0    -1  
$EndComp
$Comp
L Mechanical:MountingHole H104
U 1 1 5EA5D4A8
P 5700 7450
F 0 "H104" H 5800 7496 50  0000 L CNN
F 1 "MountingHole" H 5800 7405 50  0000 L CNN
F 2 "MountingHole:MountingHole_2.7mm_M2.5" H 5700 7450 50  0001 C CNN
F 3 "~" H 5700 7450 50  0001 C CNN
	1    5700 7450
	1    0    0    -1  
$EndComp
$Comp
L Graphic:Logo_Open_Hardware_Large #LOGO?
U 1 1 5EA7DDDD
P 5750 6750
F 0 "#LOGO?" H 5750 7250 50  0001 C CNN
F 1 "Logo_Open_Hardware_Large" H 5750 6350 50  0001 C CNN
F 2 "" H 5750 6750 50  0001 C CNN
F 3 "~" H 5750 6750 50  0001 C CNN
	1    5750 6750
	1    0    0    -1  
$EndComp
$Comp
L Graphic:SYM_Hot_Small #SYM?
U 1 1 5EA7F17D
P 3750 6050
F 0 "#SYM?" H 3750 6190 50  0001 C CNN
F 1 "SYM_Hot_Small" H 3750 5925 50  0001 C CNN
F 2 "" H 3750 5875 50  0001 C CNN
F 3 "~" H 3780 5850 50  0001 C CNN
	1    3750 6050
	1    0    0    -1  
$EndComp
$EndSCHEMATC
