(module MOTORDRIVER (layer F.Cu) (tedit 5DB6F37E)
  (fp_text reference REF** (at -10.99 0 90) (layer F.SilkS)
    (effects (font (size 1 1) (thickness 0.15)))
  )
  (fp_text value "MOTOR DRIVER" (at 0 0) (layer F.Fab)
    (effects (font (size 1 1) (thickness 0.15)))
  )
  (fp_line (start -9.99 9.125) (end 9.99 9.125) (layer F.SilkS) (width 0.12))
  (fp_line (start 9.99 9.125) (end 9.99 -9.125) (layer F.SilkS) (width 0.12))
  (fp_line (start 9.99 -9.125) (end -9.99 -9.125) (layer F.SilkS) (width 0.12))
  (fp_line (start -9.99 -9.125) (end -9.99 -3.041666) (layer F.SilkS) (width 0.12))
  (fp_line (start -9.99 -3.041666) (end -9.63 -3.041666) (layer F.SilkS) (width 0.12))
  (fp_line (start -9.63 -3.041666) (end -9.63 3.041666) (layer F.SilkS) (width 0.12))
  (fp_line (start -9.63 3.041666) (end -9.99 3.041666) (layer F.SilkS) (width 0.12))
  (fp_line (start -9.99 3.041666) (end -9.99 9.125) (layer F.SilkS) (width 0.12))
  (fp_line (start -9.74 -8.88) (end 9.74 -8.88) (layer F.CrtYd) (width 0.05))
  (fp_line (start 9.74 -8.88) (end 9.74 8.88) (layer F.CrtYd) (width 0.05))
  (fp_line (start 9.74 8.88) (end -9.74 8.88) (layer F.CrtYd) (width 0.05))
  (fp_line (start -9.74 8.88) (end -9.74 -8.88) (layer F.CrtYd) (width 0.05))
  (pad 16 thru_hole oval (at -8.89 -7.625) (size 1.2 2) (drill 0.8) (layers *.Cu *.Mask))
  (pad 1 thru_hole oval (at -8.89 7.625) (size 1.2 2) (drill 0.8) (layers *.Cu *.Mask))
  (pad 15 thru_hole oval (at -6.35 -7.625) (size 1.2 2) (drill 0.8) (layers *.Cu *.Mask))
  (pad 2 thru_hole oval (at -6.35 7.625) (size 1.2 2) (drill 0.8) (layers *.Cu *.Mask))
  (pad 14 thru_hole oval (at -3.81 -7.625) (size 1.2 2) (drill 0.8) (layers *.Cu *.Mask))
  (pad 3 thru_hole oval (at -3.81 7.625) (size 1.2 2) (drill 0.8) (layers *.Cu *.Mask))
  (pad 13 thru_hole oval (at -1.27 -7.625) (size 1.2 2) (drill 0.8) (layers *.Cu *.Mask))
  (pad 4 thru_hole oval (at -1.27 7.625) (size 1.2 2) (drill 0.8) (layers *.Cu *.Mask))
  (pad 12 thru_hole oval (at 1.27 -7.625) (size 1.2 2) (drill 0.8) (layers *.Cu *.Mask))
  (pad 5 thru_hole oval (at 1.27 7.625) (size 1.2 2) (drill 0.8) (layers *.Cu *.Mask))
  (pad 11 thru_hole oval (at 3.81 -7.625) (size 1.2 2) (drill 0.8) (layers *.Cu *.Mask))
  (pad 6 thru_hole oval (at 3.81 7.625) (size 1.2 2) (drill 0.8) (layers *.Cu *.Mask))
  (pad 10 thru_hole oval (at 6.35 -7.625) (size 1.2 2) (drill 0.8) (layers *.Cu *.Mask))
  (pad 7 thru_hole oval (at 6.35 7.625) (size 1.2 2) (drill 0.8) (layers *.Cu *.Mask))
  (pad 9 thru_hole oval (at 8.89 -7.625) (size 1.2 2) (drill 0.8) (layers *.Cu *.Mask))
  (pad 8 thru_hole oval (at 8.89 7.625) (size 1.2 2) (drill 0.8) (layers *.Cu *.Mask))
)
