%!PS-Adobe-3.0
%%Creator: PCBNEW
%%CreationDate: Mon Nov 18 12:58:25 2019
%%Title: /home/yisraeldov/Projects/max45/hardware/serial-motor-driver/gerbers/serial-motor-driver-drl_map.ps
%%Pages: 1
%%PageOrder: Ascend
%%BoundingBox: 0 0 596 842
%%DocumentMedia: A4 595 842 0 () ()
%%Orientation: Landscape
%%EndComments
%%BeginProlog
/line { newpath moveto lineto stroke } bind def
/cir0 { newpath 0 360 arc stroke } bind def
/cir1 { newpath 0 360 arc gsave fill grestore stroke } bind def
/cir2 { newpath 0 360 arc gsave fill grestore stroke } bind def
/arc0 { newpath arc stroke } bind def
/arc1 { newpath 4 index 4 index moveto arc closepath gsave fill
    grestore stroke } bind def
/arc2 { newpath 4 index 4 index moveto arc closepath gsave fill
    grestore stroke } bind def
/poly0 { stroke } bind def
/poly1 { closepath gsave fill grestore stroke } bind def
/poly2 { closepath gsave fill grestore stroke } bind def
/rect0 { rectstroke } bind def
/rect1 { rectfill } bind def
/rect2 { rectfill } bind def
/linemode0 { 0 setlinecap 0 setlinejoin 0 setlinewidth } bind def
/linemode1 { 1 setlinecap 1 setlinejoin } bind def
/dashedline { [200] 100 setdash } bind def
/solidline { [] 0 setdash } bind def
/phantomshow { moveto
    /KicadFont findfont 0.000001 scalefont setfont
    show } bind def
/textshow { gsave
    findfont exch scalefont setfont concat 1 scale 0 0 moveto show
    } bind def
/reencodefont {
  findfont dup length dict begin
  { 1 index /FID ne
    { def }
    { pop pop } ifelse
  } forall
  /Encoding ISOLatin1Encoding def
  currentdict
  end } bind def
/KicadFont /Helvetica reencodefont definefont pop
/KicadFont-Bold /Helvetica-Bold reencodefont definefont pop
/KicadFont-Oblique /Helvetica-Oblique reencodefont definefont pop
/KicadFont-BoldOblique /Helvetica-BoldOblique reencodefont definefont pop
%%EndProlog
%%Page: 1 1
%%BeginPageSetup
gsave
0.0072 0.0072 scale
linemode1
82680 0 translate 90 rotate
52.9492 setlinewidth
%%EndPageSetup
0 0 0 setrgbcolor
41.6923 setlinewidth
newpath
37618.9 78722.1 moveto
79311.1 78722.1 lineto
stroke
0 0 0 setrgbcolor
newpath
37618.9 37029.9 moveto
37618.9 78722.1 lineto
stroke
0 0 0 setrgbcolor
newpath
79311.1 37029.9 moveto
37618.9 37029.9 lineto
stroke
0 0 0 setrgbcolor
newpath
79311.1 78722.1 moveto
79311.1 37029.9 lineto
stroke
78.7401 setlinewidth
newpath
38035.8 42666.7 moveto
38202.5 42499.9 lineto
stroke
newpath
38202.5 42666.7 moveto
38035.8 42499.9 lineto
stroke
newpath
42430.6 47595.1 moveto
42597.3 47428.3 lineto
stroke
newpath
42597.3 47595.1 moveto
42430.6 47428.3 lineto
stroke
newpath
43372.4 50454.8 moveto
43539.2 50288 lineto
stroke
newpath
43539.2 50454.8 moveto
43372.4 50288 lineto
stroke
newpath
43622.5 42950.2 moveto
43789.3 42783.4 lineto
stroke
newpath
43789.3 42950.2 moveto
43622.5 42783.4 lineto
stroke
newpath
44039.5 47703.1 moveto
44206.2 47536.3 lineto
stroke
newpath
44206.2 47703.1 moveto
44039.5 47536.3 lineto
stroke
newpath
44072 58975 moveto
44238.8 58808.2 lineto
stroke
newpath
44238.8 58975 moveto
44072 58808.2 lineto
stroke
newpath
44373 55124.3 moveto
44539.8 54957.5 lineto
stroke
newpath
44539.8 55124.3 moveto
44373 54957.5 lineto
stroke
newpath
44518.9 45347.5 moveto
44685.7 45180.7 lineto
stroke
newpath
44685.7 45347.5 moveto
44518.9 45180.7 lineto
stroke
newpath
44869.7 46048.6 moveto
45036.4 45881.8 lineto
stroke
newpath
45036.4 46048.6 moveto
44869.7 45881.8 lineto
stroke
newpath
45623.8 42950.2 moveto
45790.5 42783.4 lineto
stroke
newpath
45790.5 42950.2 moveto
45623.8 42783.4 lineto
stroke
newpath
45707.2 47703.1 moveto
45873.9 47536.3 lineto
stroke
newpath
45873.9 47703.1 moveto
45707.2 47536.3 lineto
stroke
newpath
47037.1 60669.4 moveto
47203.9 60502.6 lineto
stroke
newpath
47203.9 60669.4 moveto
47037.1 60502.6 lineto
stroke
newpath
47750.1 46910.9 moveto
47916.9 46744.2 lineto
stroke
newpath
47916.9 46910.9 moveto
47750.1 46744.2 lineto
stroke
newpath
48202 55586.3 moveto
48368.8 55419.5 lineto
stroke
newpath
48368.8 55586.3 moveto
48202 55419.5 lineto
stroke
newpath
48208.7 59001.7 moveto
48375.5 58834.9 lineto
stroke
newpath
48375.5 59001.7 moveto
48208.7 58834.9 lineto
stroke
newpath
49684.6 51138.5 moveto
49851.4 50971.8 lineto
stroke
newpath
49851.4 51138.5 moveto
49684.6 50971.8 lineto
stroke
newpath
50126.5 47703.1 moveto
50293.3 47536.3 lineto
stroke
newpath
50293.3 47703.1 moveto
50126.5 47536.3 lineto
stroke
newpath
51189.7 43054.4 moveto
51356.5 42887.6 lineto
stroke
newpath
51356.5 43054.4 moveto
51189.7 42887.6 lineto
stroke
newpath
51564.9 47703.1 moveto
51731.7 47536.3 lineto
stroke
newpath
51731.7 47703.1 moveto
51564.9 47536.3 lineto
stroke
newpath
51696.7 50079.5 moveto
51863.4 49912.8 lineto
stroke
newpath
51863.4 50079.5 moveto
51696.7 49912.8 lineto
stroke
newpath
51919.3 54832.5 moveto
52086.1 54665.7 lineto
stroke
newpath
52086.1 54832.5 moveto
51919.3 54665.7 lineto
stroke
newpath
52023.5 45347.5 moveto
52190.3 45180.7 lineto
stroke
newpath
52190.3 45347.5 moveto
52023.5 45180.7 lineto
stroke
newpath
52544.7 45868.6 moveto
52711.5 45701.9 lineto
stroke
newpath
52711.5 45868.6 moveto
52544.7 45701.9 lineto
stroke
newpath
52861.6 51138.5 moveto
53028.3 50971.8 lineto
stroke
newpath
53028.3 51138.5 moveto
52861.6 50971.8 lineto
stroke
newpath
53065.8 43054.4 moveto
53232.6 42887.6 lineto
stroke
newpath
53232.6 43054.4 moveto
53065.8 42887.6 lineto
stroke
newpath
53336.8 47703.1 moveto
53503.6 47536.3 lineto
stroke
newpath
53503.6 47703.1 moveto
53336.8 47536.3 lineto
stroke
newpath
53391 58021.9 moveto
53557.8 57855.2 lineto
stroke
newpath
53557.8 58021.9 moveto
53391 57855.2 lineto
stroke
newpath
54129 54790.8 moveto
54295.8 54624 lineto
stroke
newpath
54295.8 54790.8 moveto
54129 54624 lineto
stroke
newpath
54979.5 49973.6 moveto
55146.3 49806.9 lineto
stroke
newpath
55146.3 49973.6 moveto
54979.5 49806.9 lineto
stroke
newpath
56144.4 51138.5 moveto
56311.2 50971.8 lineto
stroke
newpath
56311.2 51138.5 moveto
56144.4 50971.8 lineto
stroke
newpath
56797.3 57917.7 moveto
56964.1 57750.9 lineto
stroke
newpath
56964.1 57917.7 moveto
56797.3 57750.9 lineto
stroke
newpath
56818.2 54832.5 moveto
56984.9 54665.7 lineto
stroke
newpath
56984.9 54832.5 moveto
56818.2 54665.7 lineto
stroke
newpath
56922.4 47703.1 moveto
57089.2 47536.3 lineto
stroke
newpath
57089.2 47703.1 moveto
56922.4 47536.3 lineto
stroke
newpath
58381.6 50454.8 moveto
58548.4 50288 lineto
stroke
newpath
58548.4 50454.8 moveto
58381.6 50288 lineto
stroke
newpath
58590.1 42950.2 moveto
58756.8 42783.4 lineto
stroke
newpath
58756.8 42950.2 moveto
58590.1 42783.4 lineto
stroke
newpath
59257.2 47703.1 moveto
59423.9 47536.3 lineto
stroke
newpath
59423.9 47703.1 moveto
59257.2 47536.3 lineto
stroke
newpath
59340.5 58668.2 moveto
59507.3 58501.4 lineto
stroke
newpath
59507.3 58668.2 moveto
59340.5 58501.4 lineto
stroke
newpath
59632.4 45347.5 moveto
59799.2 45180.7 lineto
stroke
newpath
59799.2 45347.5 moveto
59632.4 45180.7 lineto
stroke
newpath
59991.1 46077.1 moveto
60157.9 45910.3 lineto
stroke
newpath
60157.9 46077.1 moveto
59991.1 45910.3 lineto
stroke
newpath
60570.5 55874.8 moveto
60737.2 55708 lineto
stroke
newpath
60737.2 55874.8 moveto
60570.5 55708 lineto
stroke
newpath
60582.8 42950.2 moveto
60749.6 42783.4 lineto
stroke
newpath
60749.6 42950.2 moveto
60582.8 42783.4 lineto
stroke
newpath
60716.4 47703.1 moveto
60883.2 47536.3 lineto
stroke
newpath
60883.2 47703.1 moveto
60716.4 47536.3 lineto
stroke
newpath
62133.9 45868.6 moveto
62300.7 45701.9 lineto
stroke
newpath
62300.7 45868.6 moveto
62133.9 45701.9 lineto
stroke
newpath
62550.8 59835.5 moveto
62717.6 59668.8 lineto
stroke
newpath
62717.6 59835.5 moveto
62550.8 59668.8 lineto
stroke
newpath
63593.2 58167.8 moveto
63759.9 58001.1 lineto
stroke
newpath
63759.9 58167.8 moveto
63593.2 58001.1 lineto
stroke
newpath
64510.4 50371.4 moveto
64677.2 50204.6 lineto
stroke
newpath
64677.2 50371.4 moveto
64510.4 50204.6 lineto
stroke
newpath
64663 47703.1 moveto
64829.7 47536.3 lineto
stroke
newpath
64829.7 47703.1 moveto
64663 47536.3 lineto
stroke
newpath
66386.5 43116.9 moveto
66553.3 42950.2 lineto
stroke
newpath
66553.3 43116.9 moveto
66386.5 42950.2 lineto
stroke
newpath
66720.1 50454.8 moveto
66886.8 50288 lineto
stroke
newpath
66886.8 50454.8 moveto
66720.1 50288 lineto
stroke
newpath
67137 54102.8 moveto
67303.8 53936.1 lineto
stroke
newpath
67303.8 54102.8 moveto
67137 53936.1 lineto
stroke
newpath
67241.2 45347.5 moveto
67408 45180.7 lineto
stroke
newpath
67408 45347.5 moveto
67241.2 45180.7 lineto
stroke
newpath
67658.2 45868.6 moveto
67824.9 45701.9 lineto
stroke
newpath
67824.9 45868.6 moveto
67658.2 45701.9 lineto
stroke
newpath
67970.8 50329.7 moveto
68137.6 50162.9 lineto
stroke
newpath
68137.6 50329.7 moveto
67970.8 50162.9 lineto
stroke
newpath
68087.4 43033.5 moveto
68254.2 42866.8 lineto
stroke
newpath
68254.2 43033.5 moveto
68087.4 42866.8 lineto
stroke
newpath
68116.8 47703.1 moveto
68283.5 47536.3 lineto
stroke
newpath
68283.5 47703.1 moveto
68116.8 47536.3 lineto
stroke
newpath
68283.5 58376.3 moveto
68450.3 58209.5 lineto
stroke
newpath
68450.3 58376.3 moveto
68283.5 58209.5 lineto
stroke
newpath
69638.5 45868.6 moveto
69805.3 45701.9 lineto
stroke
newpath
69805.3 45868.6 moveto
69638.5 45701.9 lineto
stroke
newpath
69847 53581.7 moveto
70013.8 53414.9 lineto
stroke
newpath
70013.8 53581.7 moveto
69847 53414.9 lineto
stroke
newpath
70263.9 58063.6 moveto
70430.7 57896.8 lineto
stroke
newpath
70430.7 58063.6 moveto
70263.9 57896.8 lineto
stroke
newpath
72244.3 57021.3 moveto
72411.1 56854.5 lineto
stroke
newpath
72411.1 57021.3 moveto
72244.3 56854.5 lineto
stroke
newpath
72348.5 47703.1 moveto
72515.3 47536.3 lineto
stroke
newpath
72515.3 47703.1 moveto
72348.5 47536.3 lineto
stroke
newpath
73390.8 42950.2 moveto
73557.6 42783.4 lineto
stroke
newpath
73557.6 42950.2 moveto
73390.8 42783.4 lineto
stroke
newpath
74183 57959.4 moveto
74349.8 57792.6 lineto
stroke
newpath
74349.8 57959.4 moveto
74183 57792.6 lineto
stroke
newpath
74433.1 50454.8 moveto
74599.9 50288 lineto
stroke
newpath
74599.9 50454.8 moveto
74433.1 50288 lineto
stroke
newpath
74635.8 45451.8 moveto
74802.5 45285 lineto
stroke
newpath
74802.5 45451.8 moveto
74635.8 45285 lineto
stroke
newpath
75114.8 45408.4 moveto
75281.6 45241.6 lineto
stroke
newpath
75281.6 45408.4 moveto
75114.8 45241.6 lineto
stroke
newpath
75642.2 42950.2 moveto
75809 42783.4 lineto
stroke
newpath
75809 42950.2 moveto
75642.2 42783.4 lineto
stroke
newpath
75725.6 59710.5 moveto
75892.4 59543.7 lineto
stroke
newpath
75892.4 59710.5 moveto
75725.6 59543.7 lineto
stroke
newpath
76476.1 58001.1 moveto
76642.8 57834.3 lineto
stroke
newpath
76642.8 58001.1 moveto
76476.1 57834.3 lineto
stroke
newpath
77643.5 47077.7 moveto
77810.2 46910.9 lineto
stroke
newpath
77810.2 47077.7 moveto
77643.5 46910.9 lineto
stroke
newpath
77685.1 41949.5 moveto
77851.9 41782.8 lineto
stroke
newpath
77851.9 41949.5 moveto
77685.1 41782.8 lineto
stroke
64927.3 60169.1 198.038 cir0
65969.6 60169.1 198.038 cir0
67011.9 60169.1 198.038 cir0
68054.2 60169.1 198.038 cir0
69096.5 60169.1 198.038 cir0
70138.8 60169.1 198.038 cir0
71181.1 60169.1 198.038 cir0
72223.5 60169.1 198.038 cir0
53253.5 60586 198.038 cir0
54295.8 60586 198.038 cir0
55338.1 60586 198.038 cir0
56380.4 60586 198.038 cir0
57422.7 60586 198.038 cir0
58465 60586 198.038 cir0
59507.3 60586 198.038 cir0
60549.6 60586 198.038 cir0
newpath
52002.7 40990.6 moveto
52002.7 40573.7 lineto
stroke
newpath
51794.2 40782.2 moveto
52211.2 40782.2 lineto
stroke
newpath
53045 40990.6 moveto
53045 40573.7 lineto
stroke
newpath
52836.5 40782.2 moveto
53253.5 40782.2 lineto
stroke
newpath
59507.3 40990.6 moveto
59507.3 40573.7 lineto
stroke
newpath
59298.8 40782.2 moveto
59715.8 40782.2 lineto
stroke
newpath
60549.6 40990.6 moveto
60549.6 40573.7 lineto
stroke
newpath
60341.2 40782.2 moveto
60758.1 40782.2 lineto
stroke
newpath
70764.2 40990.6 moveto
70764.2 40573.7 lineto
stroke
newpath
70555.8 40782.2 moveto
70972.7 40782.2 lineto
stroke
newpath
71806.5 40990.6 moveto
71806.5 40573.7 lineto
stroke
newpath
71598.1 40782.2 moveto
72015 40782.2 lineto
stroke
newpath
55755 40990.6 moveto
55755 40573.7 lineto
stroke
newpath
55546.5 40782.2 moveto
55963.5 40782.2 lineto
stroke
newpath
56797.3 40990.6 moveto
56797.3 40573.7 lineto
stroke
newpath
56588.8 40782.2 moveto
57005.8 40782.2 lineto
stroke
newpath
76309.3 55833.1 moveto
76309.3 55416.2 lineto
stroke
newpath
76100.8 55624.6 moveto
76517.8 55624.6 lineto
stroke
newpath
76309.3 54790.8 moveto
76309.3 54373.8 lineto
stroke
newpath
76100.8 54582.3 moveto
76517.8 54582.3 lineto
stroke
newpath
48250.4 40990.6 moveto
48250.4 40573.7 lineto
stroke
newpath
48041.9 40782.2 moveto
48458.9 40782.2 lineto
stroke
newpath
49292.7 40990.6 moveto
49292.7 40573.7 lineto
stroke
newpath
49084.2 40782.2 moveto
49501.2 40782.2 lineto
stroke
newpath
76351 51872.3 moveto
76351 51455.4 lineto
stroke
newpath
76142.5 51663.8 moveto
76559.5 51663.8 lineto
stroke
newpath
76351 50830 moveto
76351 50413.1 lineto
stroke
newpath
76142.5 50621.5 moveto
76559.5 50621.5 lineto
stroke
newpath
74516.5 40990.6 moveto
74516.5 40573.7 lineto
stroke
newpath
74308.1 40782.2 moveto
74725 40782.2 lineto
stroke
newpath
75558.8 40990.6 moveto
75558.8 40573.7 lineto
stroke
newpath
75350.4 40782.2 moveto
75767.3 40782.2 lineto
stroke
newpath
63259.6 40990.6 moveto
63259.6 40573.7 lineto
stroke
newpath
63051.2 40782.2 moveto
63468.1 40782.2 lineto
stroke
newpath
64301.9 40990.6 moveto
64301.9 40573.7 lineto
stroke
newpath
64093.5 40782.2 moveto
64510.4 40782.2 lineto
stroke
newpath
40745.8 40990.6 moveto
40745.8 40573.7 lineto
stroke
newpath
40537.3 40782.2 moveto
40954.2 40782.2 lineto
stroke
newpath
41788.1 40990.6 moveto
41788.1 40573.7 lineto
stroke
newpath
41579.6 40782.2 moveto
41996.5 40782.2 lineto
stroke
newpath
44498.1 40990.6 moveto
44498.1 40573.7 lineto
stroke
newpath
44289.6 40782.2 moveto
44706.5 40782.2 lineto
stroke
newpath
45540.4 40990.6 moveto
45540.4 40573.7 lineto
stroke
newpath
45331.9 40782.2 moveto
45748.9 40782.2 lineto
stroke
newpath
39072.2 53153.1 moveto
39072.2 52736.2 lineto
stroke
newpath
38863.8 52944.6 moveto
39280.7 52944.6 lineto
stroke
newpath
39072.2 52110.8 moveto
39072.2 51693.9 lineto
stroke
newpath
38863.8 51902.3 moveto
39280.7 51902.3 lineto
stroke
newpath
67011.9 40990.6 moveto
67011.9 40573.7 lineto
stroke
newpath
66803.5 40782.2 moveto
67220.4 40782.2 lineto
stroke
newpath
68054.2 40990.6 moveto
68054.2 40573.7 lineto
stroke
newpath
67845.8 40782.2 moveto
68262.7 40782.2 lineto
stroke
newpath
78593.1 77355.5 moveto
78593.1 78004.1 lineto
77944.5 78004.1 lineto
77944.5 77355.5 lineto
78593.1 77355.5 lineto
poly0
newpath
78593.1 37747.9 moveto
78593.1 38396.5 lineto
77944.5 38396.5 lineto
77944.5 37747.9 lineto
78593.1 37747.9 lineto
poly0
newpath
38985.5 37747.9 moveto
38985.5 38396.5 lineto
38336.9 38396.5 lineto
38336.9 37747.9 lineto
38985.5 37747.9 lineto
poly0
newpath
38985.5 77355.5 moveto
38985.5 78004.1 lineto
38336.9 78004.1 lineto
38336.9 77355.5 lineto
38985.5 77355.5 lineto
poly0
118.11 setlinewidth
0 0 0 setrgbcolor
0 0 0 setrgbcolor
newpath
38725.7 35175.5 moveto
38725.7 36356.6 lineto
39006.9 36356.6 lineto
39175.6 36300.3 lineto
39288.1 36187.9 lineto
39344.4 36075.4 lineto
39400.6 35850.4 lineto
39400.6 35681.7 lineto
39344.4 35456.7 lineto
39288.1 35344.2 lineto
39175.6 35231.7 lineto
39006.9 35175.5 lineto
38725.7 35175.5 lineto
stroke
newpath
39906.8 35175.5 moveto
39906.8 35962.9 lineto
stroke
newpath
39906.8 35737.9 moveto
39963 35850.4 lineto
40019.3 35906.6 lineto
40131.8 35962.9 lineto
40244.2 35962.9 lineto
stroke
newpath
40637.9 35175.5 moveto
40637.9 35962.9 lineto
stroke
newpath
40637.9 36356.6 moveto
40581.7 36300.3 lineto
40637.9 36244.1 lineto
40694.2 36300.3 lineto
40637.9 36356.6 lineto
40637.9 36244.1 lineto
stroke
newpath
41369.1 35175.5 moveto
41256.6 35231.7 lineto
41200.4 35344.2 lineto
41200.4 36356.6 lineto
stroke
newpath
41987.8 35175.5 moveto
41875.3 35231.7 lineto
41819 35344.2 lineto
41819 36356.6 lineto
stroke
newpath
43337.6 35175.5 moveto
43337.6 36356.6 lineto
43731.3 35512.9 lineto
44125 36356.6 lineto
44125 35175.5 lineto
stroke
newpath
45193.6 35175.5 moveto
45193.6 35794.2 lineto
45137.4 35906.6 lineto
45024.9 35962.9 lineto
44799.9 35962.9 lineto
44687.4 35906.6 lineto
stroke
newpath
45193.6 35231.7 moveto
45081.1 35175.5 lineto
44799.9 35175.5 lineto
44687.4 35231.7 lineto
44631.2 35344.2 lineto
44631.2 35456.7 lineto
44687.4 35569.2 lineto
44799.9 35625.4 lineto
45081.1 35625.4 lineto
45193.6 35681.7 lineto
stroke
newpath
45756 35962.9 moveto
45756 34781.8 lineto
stroke
newpath
45756 35906.6 moveto
45868.5 35962.9 lineto
46093.5 35962.9 lineto
46206 35906.6 lineto
46262.2 35850.4 lineto
46318.5 35737.9 lineto
46318.5 35400.5 lineto
46262.2 35288 lineto
46206 35231.7 lineto
46093.5 35175.5 lineto
45868.5 35175.5 lineto
45756 35231.7 lineto
stroke
newpath
46824.7 35288 moveto
46880.9 35231.7 lineto
46824.7 35175.5 lineto
46768.4 35231.7 lineto
46824.7 35288 lineto
46824.7 35175.5 lineto
stroke
newpath
46824.7 35906.6 moveto
46880.9 35850.4 lineto
46824.7 35794.2 lineto
46768.4 35850.4 lineto
46824.7 35906.6 lineto
46824.7 35794.2 lineto
stroke
newpath
37431.2 33312.9 moveto
37598 33146.1 lineto
stroke
newpath
37598 33312.9 moveto
37431.2 33146.1 lineto
stroke
0 0 0 setrgbcolor
0 0 0 setrgbcolor
newpath
38950.7 33876.3 moveto
39063.1 33876.3 lineto
39175.6 33820 lineto
39231.9 33763.8 lineto
39288.1 33651.3 lineto
39344.4 33426.3 lineto
39344.4 33145.1 lineto
39288.1 32920.1 lineto
39231.9 32807.7 lineto
39175.6 32751.4 lineto
39063.1 32695.2 lineto
38950.7 32695.2 lineto
38838.2 32751.4 lineto
38781.9 32807.7 lineto
38725.7 32920.1 lineto
38669.4 33145.1 lineto
38669.4 33426.3 lineto
38725.7 33651.3 lineto
38781.9 33763.8 lineto
38838.2 33820 lineto
38950.7 33876.3 lineto
stroke
newpath
39850.5 32807.7 moveto
39906.8 32751.4 lineto
39850.5 32695.2 lineto
39794.3 32751.4 lineto
39850.5 32807.7 lineto
39850.5 32695.2 lineto
stroke
newpath
40919.2 33482.6 moveto
40919.2 32695.2 lineto
stroke
newpath
40637.9 33932.5 moveto
40356.7 33088.9 lineto
41087.9 33088.9 lineto
stroke
newpath
41762.8 33876.3 moveto
41875.3 33876.3 lineto
41987.8 33820 lineto
42044 33763.8 lineto
42100.3 33651.3 lineto
42156.5 33426.3 lineto
42156.5 33145.1 lineto
42100.3 32920.1 lineto
42044 32807.7 lineto
41987.8 32751.4 lineto
41875.3 32695.2 lineto
41762.8 32695.2 lineto
41650.3 32751.4 lineto
41594.1 32807.7 lineto
41537.8 32920.1 lineto
41481.6 33145.1 lineto
41481.6 33426.3 lineto
41537.8 33651.3 lineto
41594.1 33763.8 lineto
41650.3 33820 lineto
41762.8 33876.3 lineto
stroke
newpath
42662.7 32695.2 moveto
42662.7 33482.6 lineto
stroke
newpath
42662.7 33370.1 moveto
42718.9 33426.3 lineto
42831.4 33482.6 lineto
43000.1 33482.6 lineto
43112.6 33426.3 lineto
43168.9 33313.8 lineto
43168.9 32695.2 lineto
stroke
newpath
43168.9 33313.8 moveto
43225.1 33426.3 lineto
43337.6 33482.6 lineto
43506.3 33482.6 lineto
43618.8 33426.3 lineto
43675.1 33313.8 lineto
43675.1 32695.2 lineto
stroke
newpath
44237.5 32695.2 moveto
44237.5 33482.6 lineto
stroke
newpath
44237.5 33370.1 moveto
44293.7 33426.3 lineto
44406.2 33482.6 lineto
44574.9 33482.6 lineto
44687.4 33426.3 lineto
44743.7 33313.8 lineto
44743.7 32695.2 lineto
stroke
newpath
44743.7 33313.8 moveto
44799.9 33426.3 lineto
44912.4 33482.6 lineto
45081.1 33482.6 lineto
45193.6 33426.3 lineto
45249.9 33313.8 lineto
45249.9 32695.2 lineto
stroke
newpath
47555.8 33932.5 moveto
46543.5 32414 lineto
stroke
newpath
49074.4 33876.3 moveto
49186.9 33876.3 lineto
49299.4 33820 lineto
49355.6 33763.8 lineto
49411.8 33651.3 lineto
49468.1 33426.3 lineto
49468.1 33145.1 lineto
49411.8 32920.1 lineto
49355.6 32807.7 lineto
49299.4 32751.4 lineto
49186.9 32695.2 lineto
49074.4 32695.2 lineto
48961.9 32751.4 lineto
48905.7 32807.7 lineto
48849.4 32920.1 lineto
48793.2 33145.1 lineto
48793.2 33426.3 lineto
48849.4 33651.3 lineto
48905.7 33763.8 lineto
48961.9 33820 lineto
49074.4 33876.3 lineto
stroke
newpath
49974.3 32807.7 moveto
50030.5 32751.4 lineto
49974.3 32695.2 lineto
49918 32751.4 lineto
49974.3 32807.7 lineto
49974.3 32695.2 lineto
stroke
newpath
50761.7 33876.3 moveto
50874.2 33876.3 lineto
50986.6 33820 lineto
51042.9 33763.8 lineto
51099.1 33651.3 lineto
51155.4 33426.3 lineto
51155.4 33145.1 lineto
51099.1 32920.1 lineto
51042.9 32807.7 lineto
50986.6 32751.4 lineto
50874.2 32695.2 lineto
50761.7 32695.2 lineto
50649.2 32751.4 lineto
50592.9 32807.7 lineto
50536.7 32920.1 lineto
50480.5 33145.1 lineto
50480.5 33426.3 lineto
50536.7 33651.3 lineto
50592.9 33763.8 lineto
50649.2 33820 lineto
50761.7 33876.3 lineto
stroke
newpath
52280.2 32695.2 moveto
51605.3 32695.2 lineto
stroke
newpath
51942.8 32695.2 moveto
51942.8 33876.3 lineto
51830.3 33707.5 lineto
51717.8 33595.1 lineto
51605.3 33538.8 lineto
stroke
newpath
53292.6 33876.3 moveto
53067.6 33876.3 lineto
52955.1 33820 lineto
52898.9 33763.8 lineto
52786.4 33595.1 lineto
52730.2 33370.1 lineto
52730.2 32920.1 lineto
52786.4 32807.7 lineto
52842.7 32751.4 lineto
52955.1 32695.2 lineto
53180.1 32695.2 lineto
53292.6 32751.4 lineto
53348.8 32807.7 lineto
53405.1 32920.1 lineto
53405.1 33201.4 lineto
53348.8 33313.8 lineto
53292.6 33370.1 lineto
53180.1 33426.3 lineto
52955.1 33426.3 lineto
52842.7 33370.1 lineto
52786.4 33313.8 lineto
52730.2 33201.4 lineto
stroke
newpath
53855 33876.3 moveto
53855 33651.3 lineto
stroke
newpath
54305 33876.3 moveto
54305 33651.3 lineto
stroke
newpath
56048.5 32245.2 moveto
55992.3 32301.5 lineto
55879.8 32470.2 lineto
55823.5 32582.7 lineto
55767.3 32751.4 lineto
55711.1 33032.6 lineto
55711.1 33257.6 lineto
55767.3 33538.8 lineto
55823.5 33707.5 lineto
55879.8 33820 lineto
55992.3 33988.8 lineto
56048.5 34045 lineto
stroke
newpath
56386 33876.3 moveto
57173.4 33876.3 lineto
56667.2 32695.2 lineto
stroke
newpath
58242 32695.2 moveto
57567.1 32695.2 lineto
stroke
newpath
57904.5 32695.2 moveto
57904.5 33876.3 lineto
57792 33707.5 lineto
57679.6 33595.1 lineto
57567.1 33538.8 lineto
stroke
newpath
59648.1 32695.2 moveto
59648.1 33876.3 lineto
stroke
newpath
60154.2 32695.2 moveto
60154.2 33313.8 lineto
60098 33426.3 lineto
59985.5 33482.6 lineto
59816.8 33482.6 lineto
59704.3 33426.3 lineto
59648.1 33370.1 lineto
stroke
newpath
60885.4 32695.2 moveto
60772.9 32751.4 lineto
60716.7 32807.7 lineto
60660.4 32920.1 lineto
60660.4 33257.6 lineto
60716.7 33370.1 lineto
60772.9 33426.3 lineto
60885.4 33482.6 lineto
61054.1 33482.6 lineto
61166.6 33426.3 lineto
61222.9 33370.1 lineto
61279.1 33257.6 lineto
61279.1 32920.1 lineto
61222.9 32807.7 lineto
61166.6 32751.4 lineto
61054.1 32695.2 lineto
60885.4 32695.2 lineto
stroke
newpath
61954 32695.2 moveto
61841.5 32751.4 lineto
61785.3 32863.9 lineto
61785.3 33876.3 lineto
stroke
newpath
62853.9 32751.4 moveto
62741.4 32695.2 lineto
62516.5 32695.2 lineto
62404 32751.4 lineto
62347.7 32863.9 lineto
62347.7 33313.8 lineto
62404 33426.3 lineto
62516.5 33482.6 lineto
62741.4 33482.6 lineto
62853.9 33426.3 lineto
62910.2 33313.8 lineto
62910.2 33201.4 lineto
62347.7 33088.9 lineto
stroke
newpath
63360.1 32751.4 moveto
63472.6 32695.2 lineto
63697.6 32695.2 lineto
63810 32751.4 lineto
63866.3 32863.9 lineto
63866.3 32920.1 lineto
63810 33032.6 lineto
63697.6 33088.9 lineto
63528.8 33088.9 lineto
63416.3 33145.1 lineto
63360.1 33257.6 lineto
63360.1 33313.8 lineto
63416.3 33426.3 lineto
63528.8 33482.6 lineto
63697.6 33482.6 lineto
63810 33426.3 lineto
stroke
newpath
64260 32245.2 moveto
64316.2 32301.5 lineto
64428.7 32470.2 lineto
64485 32582.7 lineto
64541.2 32751.4 lineto
64597.4 33032.6 lineto
64597.4 33257.6 lineto
64541.2 33538.8 lineto
64485 33707.5 lineto
64428.7 33820 lineto
64316.2 33988.8 lineto
64260 34045 lineto
stroke
37400 31670.4 198.038 cir0
0 0 0 setrgbcolor
0 0 0 setrgbcolor
newpath
38950.7 32317.2 moveto
39063.1 32317.2 lineto
39175.6 32261 lineto
39231.9 32204.7 lineto
39288.1 32092.2 lineto
39344.4 31867.3 lineto
39344.4 31586.1 lineto
39288.1 31361.1 lineto
39231.9 31248.6 lineto
39175.6 31192.4 lineto
39063.1 31136.1 lineto
38950.7 31136.1 lineto
38838.2 31192.4 lineto
38781.9 31248.6 lineto
38725.7 31361.1 lineto
38669.4 31586.1 lineto
38669.4 31867.3 lineto
38725.7 32092.2 lineto
38781.9 32204.7 lineto
38838.2 32261 lineto
38950.7 32317.2 lineto
stroke
newpath
39850.5 31248.6 moveto
39906.8 31192.4 lineto
39850.5 31136.1 lineto
39794.3 31192.4 lineto
39850.5 31248.6 lineto
39850.5 31136.1 lineto
stroke
newpath
40469.2 31136.1 moveto
40694.2 31136.1 lineto
40806.7 31192.4 lineto
40862.9 31248.6 lineto
40975.4 31417.3 lineto
41031.6 31642.3 lineto
41031.6 32092.2 lineto
40975.4 32204.7 lineto
40919.2 32261 lineto
40806.7 32317.2 lineto
40581.7 32317.2 lineto
40469.2 32261 lineto
40413 32204.7 lineto
40356.7 32092.2 lineto
40356.7 31811 lineto
40413 31698.5 lineto
40469.2 31642.3 lineto
40581.7 31586.1 lineto
40806.7 31586.1 lineto
40919.2 31642.3 lineto
40975.4 31698.5 lineto
41031.6 31811 lineto
stroke
newpath
42100.3 32317.2 moveto
41537.8 32317.2 lineto
41481.6 31754.8 lineto
41537.8 31811 lineto
41650.3 31867.3 lineto
41931.5 31867.3 lineto
42044 31811 lineto
42100.3 31754.8 lineto
42156.5 31642.3 lineto
42156.5 31361.1 lineto
42100.3 31248.6 lineto
42044 31192.4 lineto
41931.5 31136.1 lineto
41650.3 31136.1 lineto
41537.8 31192.4 lineto
41481.6 31248.6 lineto
stroke
newpath
42662.7 31136.1 moveto
42662.7 31923.5 lineto
stroke
newpath
42662.7 31811 moveto
42718.9 31867.3 lineto
42831.4 31923.5 lineto
43000.1 31923.5 lineto
43112.6 31867.3 lineto
43168.9 31754.8 lineto
43168.9 31136.1 lineto
stroke
newpath
43168.9 31754.8 moveto
43225.1 31867.3 lineto
43337.6 31923.5 lineto
43506.3 31923.5 lineto
43618.8 31867.3 lineto
43675.1 31754.8 lineto
43675.1 31136.1 lineto
stroke
newpath
44237.5 31136.1 moveto
44237.5 31923.5 lineto
stroke
newpath
44237.5 31811 moveto
44293.7 31867.3 lineto
44406.2 31923.5 lineto
44574.9 31923.5 lineto
44687.4 31867.3 lineto
44743.7 31754.8 lineto
44743.7 31136.1 lineto
stroke
newpath
44743.7 31754.8 moveto
44799.9 31867.3 lineto
44912.4 31923.5 lineto
45081.1 31923.5 lineto
45193.6 31867.3 lineto
45249.9 31754.8 lineto
45249.9 31136.1 lineto
stroke
newpath
47555.8 32373.5 moveto
46543.5 30854.9 lineto
stroke
newpath
49074.4 32317.2 moveto
49186.9 32317.2 lineto
49299.4 32261 lineto
49355.6 32204.7 lineto
49411.8 32092.2 lineto
49468.1 31867.3 lineto
49468.1 31586.1 lineto
49411.8 31361.1 lineto
49355.6 31248.6 lineto
49299.4 31192.4 lineto
49186.9 31136.1 lineto
49074.4 31136.1 lineto
48961.9 31192.4 lineto
48905.7 31248.6 lineto
48849.4 31361.1 lineto
48793.2 31586.1 lineto
48793.2 31867.3 lineto
48849.4 32092.2 lineto
48905.7 32204.7 lineto
48961.9 32261 lineto
49074.4 32317.2 lineto
stroke
newpath
49974.3 31248.6 moveto
50030.5 31192.4 lineto
49974.3 31136.1 lineto
49918 31192.4 lineto
49974.3 31248.6 lineto
49974.3 31136.1 lineto
stroke
newpath
50761.7 32317.2 moveto
50874.2 32317.2 lineto
50986.6 32261 lineto
51042.9 32204.7 lineto
51099.1 32092.2 lineto
51155.4 31867.3 lineto
51155.4 31586.1 lineto
51099.1 31361.1 lineto
51042.9 31248.6 lineto
50986.6 31192.4 lineto
50874.2 31136.1 lineto
50761.7 31136.1 lineto
50649.2 31192.4 lineto
50592.9 31248.6 lineto
50536.7 31361.1 lineto
50480.5 31586.1 lineto
50480.5 31867.3 lineto
50536.7 32092.2 lineto
50592.9 32204.7 lineto
50649.2 32261 lineto
50761.7 32317.2 lineto
stroke
newpath
51549.1 32317.2 moveto
52280.2 32317.2 lineto
51886.5 31867.3 lineto
52055.3 31867.3 lineto
52167.7 31811 lineto
52224 31754.8 lineto
52280.2 31642.3 lineto
52280.2 31361.1 lineto
52224 31248.6 lineto
52167.7 31192.4 lineto
52055.3 31136.1 lineto
51717.8 31136.1 lineto
51605.3 31192.4 lineto
51549.1 31248.6 lineto
stroke
newpath
52673.9 32317.2 moveto
53461.3 32317.2 lineto
52955.1 31136.1 lineto
stroke
newpath
53855 32317.2 moveto
53855 32092.2 lineto
stroke
newpath
54305 32317.2 moveto
54305 32092.2 lineto
stroke
newpath
56048.5 30686.2 moveto
55992.3 30742.4 lineto
55879.8 30911.1 lineto
55823.5 31023.6 lineto
55767.3 31192.4 lineto
55711.1 31473.6 lineto
55711.1 31698.5 lineto
55767.3 31979.8 lineto
55823.5 32148.5 lineto
55879.8 32261 lineto
55992.3 32429.7 lineto
56048.5 32485.9 lineto
stroke
newpath
57117.1 31136.1 moveto
56442.2 31136.1 lineto
stroke
newpath
56779.7 31136.1 moveto
56779.7 32317.2 lineto
56667.2 32148.5 lineto
56554.7 32036 lineto
56442.2 31979.8 lineto
stroke
newpath
58129.5 32317.2 moveto
57904.5 32317.2 lineto
57792 32261 lineto
57735.8 32204.7 lineto
57623.3 32036 lineto
57567.1 31811 lineto
57567.1 31361.1 lineto
57623.3 31248.6 lineto
57679.6 31192.4 lineto
57792 31136.1 lineto
58017 31136.1 lineto
58129.5 31192.4 lineto
58185.7 31248.6 lineto
58242 31361.1 lineto
58242 31642.3 lineto
58185.7 31754.8 lineto
58129.5 31811 lineto
58017 31867.3 lineto
57792 31867.3 lineto
57679.6 31811 lineto
57623.3 31754.8 lineto
57567.1 31642.3 lineto
stroke
newpath
59648.1 31136.1 moveto
59648.1 32317.2 lineto
stroke
newpath
60154.2 31136.1 moveto
60154.2 31754.8 lineto
60098 31867.3 lineto
59985.5 31923.5 lineto
59816.8 31923.5 lineto
59704.3 31867.3 lineto
59648.1 31811 lineto
stroke
newpath
60885.4 31136.1 moveto
60772.9 31192.4 lineto
60716.7 31248.6 lineto
60660.4 31361.1 lineto
60660.4 31698.5 lineto
60716.7 31811 lineto
60772.9 31867.3 lineto
60885.4 31923.5 lineto
61054.1 31923.5 lineto
61166.6 31867.3 lineto
61222.9 31811 lineto
61279.1 31698.5 lineto
61279.1 31361.1 lineto
61222.9 31248.6 lineto
61166.6 31192.4 lineto
61054.1 31136.1 lineto
60885.4 31136.1 lineto
stroke
newpath
61954 31136.1 moveto
61841.5 31192.4 lineto
61785.3 31304.8 lineto
61785.3 32317.2 lineto
stroke
newpath
62853.9 31192.4 moveto
62741.4 31136.1 lineto
62516.5 31136.1 lineto
62404 31192.4 lineto
62347.7 31304.8 lineto
62347.7 31754.8 lineto
62404 31867.3 lineto
62516.5 31923.5 lineto
62741.4 31923.5 lineto
62853.9 31867.3 lineto
62910.2 31754.8 lineto
62910.2 31642.3 lineto
62347.7 31529.8 lineto
stroke
newpath
63360.1 31192.4 moveto
63472.6 31136.1 lineto
63697.6 31136.1 lineto
63810 31192.4 lineto
63866.3 31304.8 lineto
63866.3 31361.1 lineto
63810 31473.6 lineto
63697.6 31529.8 lineto
63528.8 31529.8 lineto
63416.3 31586.1 lineto
63360.1 31698.5 lineto
63360.1 31754.8 lineto
63416.3 31867.3 lineto
63528.8 31923.5 lineto
63697.6 31923.5 lineto
63810 31867.3 lineto
stroke
newpath
64260 30686.2 moveto
64316.2 30742.4 lineto
64428.7 30911.1 lineto
64485 31023.6 lineto
64541.2 31192.4 lineto
64597.4 31473.6 lineto
64597.4 31698.5 lineto
64541.2 31979.8 lineto
64485 32148.5 lineto
64428.7 32261 lineto
64316.2 32429.7 lineto
64260 32485.9 lineto
stroke
newpath
37389.5 30319.8 moveto
37389.5 29902.9 lineto
stroke
newpath
37181.1 30111.4 moveto
37598 30111.4 lineto
stroke
0 0 0 setrgbcolor
0 0 0 setrgbcolor
newpath
39344.4 29577.1 moveto
38669.4 29577.1 lineto
stroke
newpath
39006.9 29577.1 moveto
39006.9 30758.2 lineto
38894.4 30589.4 lineto
38781.9 30477 lineto
38669.4 30420.7 lineto
stroke
newpath
39850.5 29689.5 moveto
39906.8 29633.3 lineto
39850.5 29577.1 lineto
39794.3 29633.3 lineto
39850.5 29689.5 lineto
39850.5 29577.1 lineto
stroke
newpath
40637.9 30758.2 moveto
40750.4 30758.2 lineto
40862.9 30701.9 lineto
40919.2 30645.7 lineto
40975.4 30533.2 lineto
41031.6 30308.2 lineto
41031.6 30027 lineto
40975.4 29802 lineto
40919.2 29689.5 lineto
40862.9 29633.3 lineto
40750.4 29577.1 lineto
40637.9 29577.1 lineto
40525.5 29633.3 lineto
40469.2 29689.5 lineto
40413 29802 lineto
40356.7 30027 lineto
40356.7 30308.2 lineto
40413 30533.2 lineto
40469.2 30645.7 lineto
40525.5 30701.9 lineto
40637.9 30758.2 lineto
stroke
newpath
41762.8 30758.2 moveto
41875.3 30758.2 lineto
41987.8 30701.9 lineto
42044 30645.7 lineto
42100.3 30533.2 lineto
42156.5 30308.2 lineto
42156.5 30027 lineto
42100.3 29802 lineto
42044 29689.5 lineto
41987.8 29633.3 lineto
41875.3 29577.1 lineto
41762.8 29577.1 lineto
41650.3 29633.3 lineto
41594.1 29689.5 lineto
41537.8 29802 lineto
41481.6 30027 lineto
41481.6 30308.2 lineto
41537.8 30533.2 lineto
41594.1 30645.7 lineto
41650.3 30701.9 lineto
41762.8 30758.2 lineto
stroke
newpath
42662.7 29577.1 moveto
42662.7 30364.5 lineto
stroke
newpath
42662.7 30252 moveto
42718.9 30308.2 lineto
42831.4 30364.5 lineto
43000.1 30364.5 lineto
43112.6 30308.2 lineto
43168.9 30195.7 lineto
43168.9 29577.1 lineto
stroke
newpath
43168.9 30195.7 moveto
43225.1 30308.2 lineto
43337.6 30364.5 lineto
43506.3 30364.5 lineto
43618.8 30308.2 lineto
43675.1 30195.7 lineto
43675.1 29577.1 lineto
stroke
newpath
44237.5 29577.1 moveto
44237.5 30364.5 lineto
stroke
newpath
44237.5 30252 moveto
44293.7 30308.2 lineto
44406.2 30364.5 lineto
44574.9 30364.5 lineto
44687.4 30308.2 lineto
44743.7 30195.7 lineto
44743.7 29577.1 lineto
stroke
newpath
44743.7 30195.7 moveto
44799.9 30308.2 lineto
44912.4 30364.5 lineto
45081.1 30364.5 lineto
45193.6 30308.2 lineto
45249.9 30195.7 lineto
45249.9 29577.1 lineto
stroke
newpath
47555.8 30814.4 moveto
46543.5 29295.8 lineto
stroke
newpath
49074.4 30758.2 moveto
49186.9 30758.2 lineto
49299.4 30701.9 lineto
49355.6 30645.7 lineto
49411.8 30533.2 lineto
49468.1 30308.2 lineto
49468.1 30027 lineto
49411.8 29802 lineto
49355.6 29689.5 lineto
49299.4 29633.3 lineto
49186.9 29577.1 lineto
49074.4 29577.1 lineto
48961.9 29633.3 lineto
48905.7 29689.5 lineto
48849.4 29802 lineto
48793.2 30027 lineto
48793.2 30308.2 lineto
48849.4 30533.2 lineto
48905.7 30645.7 lineto
48961.9 30701.9 lineto
49074.4 30758.2 lineto
stroke
newpath
49974.3 29689.5 moveto
50030.5 29633.3 lineto
49974.3 29577.1 lineto
49918 29633.3 lineto
49974.3 29689.5 lineto
49974.3 29577.1 lineto
stroke
newpath
50761.7 30758.2 moveto
50874.2 30758.2 lineto
50986.6 30701.9 lineto
51042.9 30645.7 lineto
51099.1 30533.2 lineto
51155.4 30308.2 lineto
51155.4 30027 lineto
51099.1 29802 lineto
51042.9 29689.5 lineto
50986.6 29633.3 lineto
50874.2 29577.1 lineto
50761.7 29577.1 lineto
50649.2 29633.3 lineto
50592.9 29689.5 lineto
50536.7 29802 lineto
50480.5 30027 lineto
50480.5 30308.2 lineto
50536.7 30533.2 lineto
50592.9 30645.7 lineto
50649.2 30701.9 lineto
50761.7 30758.2 lineto
stroke
newpath
51549.1 30758.2 moveto
52280.2 30758.2 lineto
51886.5 30308.2 lineto
52055.3 30308.2 lineto
52167.7 30252 lineto
52224 30195.7 lineto
52280.2 30083.2 lineto
52280.2 29802 lineto
52224 29689.5 lineto
52167.7 29633.3 lineto
52055.3 29577.1 lineto
51717.8 29577.1 lineto
51605.3 29633.3 lineto
51549.1 29689.5 lineto
stroke
newpath
52842.7 29577.1 moveto
53067.6 29577.1 lineto
53180.1 29633.3 lineto
53236.4 29689.5 lineto
53348.8 29858.3 lineto
53405.1 30083.2 lineto
53405.1 30533.2 lineto
53348.8 30645.7 lineto
53292.6 30701.9 lineto
53180.1 30758.2 lineto
52955.1 30758.2 lineto
52842.7 30701.9 lineto
52786.4 30645.7 lineto
52730.2 30533.2 lineto
52730.2 30252 lineto
52786.4 30139.5 lineto
52842.7 30083.2 lineto
52955.1 30027 lineto
53180.1 30027 lineto
53292.6 30083.2 lineto
53348.8 30139.5 lineto
53405.1 30252 lineto
stroke
newpath
53855 30758.2 moveto
53855 30533.2 lineto
stroke
newpath
54305 30758.2 moveto
54305 30533.2 lineto
stroke
newpath
56048.5 29127.1 moveto
55992.3 29183.4 lineto
55879.8 29352.1 lineto
55823.5 29464.6 lineto
55767.3 29633.3 lineto
55711.1 29914.5 lineto
55711.1 30139.5 lineto
55767.3 30420.7 lineto
55823.5 30589.4 lineto
55879.8 30701.9 lineto
55992.3 30870.7 lineto
56048.5 30926.9 lineto
stroke
newpath
56442.2 30645.7 moveto
56498.5 30701.9 lineto
56610.9 30758.2 lineto
56892.2 30758.2 lineto
57004.6 30701.9 lineto
57060.9 30645.7 lineto
57117.1 30533.2 lineto
57117.1 30420.7 lineto
57060.9 30252 lineto
56386 29577.1 lineto
57117.1 29577.1 lineto
stroke
newpath
58129.5 30758.2 moveto
57904.5 30758.2 lineto
57792 30701.9 lineto
57735.8 30645.7 lineto
57623.3 30477 lineto
57567.1 30252 lineto
57567.1 29802 lineto
57623.3 29689.5 lineto
57679.6 29633.3 lineto
57792 29577.1 lineto
58017 29577.1 lineto
58129.5 29633.3 lineto
58185.7 29689.5 lineto
58242 29802 lineto
58242 30083.2 lineto
58185.7 30195.7 lineto
58129.5 30252 lineto
58017 30308.2 lineto
57792 30308.2 lineto
57679.6 30252 lineto
57623.3 30195.7 lineto
57567.1 30083.2 lineto
stroke
newpath
59648.1 29577.1 moveto
59648.1 30758.2 lineto
stroke
newpath
60154.2 29577.1 moveto
60154.2 30195.7 lineto
60098 30308.2 lineto
59985.5 30364.5 lineto
59816.8 30364.5 lineto
59704.3 30308.2 lineto
59648.1 30252 lineto
stroke
newpath
60885.4 29577.1 moveto
60772.9 29633.3 lineto
60716.7 29689.5 lineto
60660.4 29802 lineto
60660.4 30139.5 lineto
60716.7 30252 lineto
60772.9 30308.2 lineto
60885.4 30364.5 lineto
61054.1 30364.5 lineto
61166.6 30308.2 lineto
61222.9 30252 lineto
61279.1 30139.5 lineto
61279.1 29802 lineto
61222.9 29689.5 lineto
61166.6 29633.3 lineto
61054.1 29577.1 lineto
60885.4 29577.1 lineto
stroke
newpath
61954 29577.1 moveto
61841.5 29633.3 lineto
61785.3 29745.8 lineto
61785.3 30758.2 lineto
stroke
newpath
62853.9 29633.3 moveto
62741.4 29577.1 lineto
62516.5 29577.1 lineto
62404 29633.3 lineto
62347.7 29745.8 lineto
62347.7 30195.7 lineto
62404 30308.2 lineto
62516.5 30364.5 lineto
62741.4 30364.5 lineto
62853.9 30308.2 lineto
62910.2 30195.7 lineto
62910.2 30083.2 lineto
62347.7 29970.8 lineto
stroke
newpath
63360.1 29633.3 moveto
63472.6 29577.1 lineto
63697.6 29577.1 lineto
63810 29633.3 lineto
63866.3 29745.8 lineto
63866.3 29802 lineto
63810 29914.5 lineto
63697.6 29970.8 lineto
63528.8 29970.8 lineto
63416.3 30027 lineto
63360.1 30139.5 lineto
63360.1 30195.7 lineto
63416.3 30308.2 lineto
63528.8 30364.5 lineto
63697.6 30364.5 lineto
63810 30308.2 lineto
stroke
newpath
64260 29127.1 moveto
64316.2 29183.4 lineto
64428.7 29352.1 lineto
64485 29464.6 lineto
64541.2 29633.3 lineto
64597.4 29914.5 lineto
64597.4 30139.5 lineto
64541.2 30420.7 lineto
64485 30589.4 lineto
64428.7 30701.9 lineto
64316.2 30870.7 lineto
64260 30926.9 lineto
stroke
newpath
37463.7 28228 moveto
37463.7 28876.6 lineto
36815.1 28876.6 lineto
36815.1 28228 lineto
37463.7 28228 lineto
poly0
0 0 0 setrgbcolor
0 0 0 setrgbcolor
newpath
38669.4 29086.6 moveto
38725.7 29142.9 lineto
38838.2 29199.1 lineto
39119.4 29199.1 lineto
39231.9 29142.9 lineto
39288.1 29086.6 lineto
39344.4 28974.1 lineto
39344.4 28861.7 lineto
39288.1 28692.9 lineto
38613.2 28018 lineto
39344.4 28018 lineto
stroke
newpath
39850.5 28130.5 moveto
39906.8 28074.3 lineto
39850.5 28018 lineto
39794.3 28074.3 lineto
39850.5 28130.5 lineto
39850.5 28018 lineto
stroke
newpath
40356.7 29086.6 moveto
40413 29142.9 lineto
40525.5 29199.1 lineto
40806.7 29199.1 lineto
40919.2 29142.9 lineto
40975.4 29086.6 lineto
41031.6 28974.1 lineto
41031.6 28861.7 lineto
40975.4 28692.9 lineto
40300.5 28018 lineto
41031.6 28018 lineto
stroke
newpath
41762.8 29199.1 moveto
41875.3 29199.1 lineto
41987.8 29142.9 lineto
42044 29086.6 lineto
42100.3 28974.1 lineto
42156.5 28749.2 lineto
42156.5 28468 lineto
42100.3 28243 lineto
42044 28130.5 lineto
41987.8 28074.3 lineto
41875.3 28018 lineto
41762.8 28018 lineto
41650.3 28074.3 lineto
41594.1 28130.5 lineto
41537.8 28243 lineto
41481.6 28468 lineto
41481.6 28749.2 lineto
41537.8 28974.1 lineto
41594.1 29086.6 lineto
41650.3 29142.9 lineto
41762.8 29199.1 lineto
stroke
newpath
42662.7 28018 moveto
42662.7 28805.4 lineto
stroke
newpath
42662.7 28692.9 moveto
42718.9 28749.2 lineto
42831.4 28805.4 lineto
43000.1 28805.4 lineto
43112.6 28749.2 lineto
43168.9 28636.7 lineto
43168.9 28018 lineto
stroke
newpath
43168.9 28636.7 moveto
43225.1 28749.2 lineto
43337.6 28805.4 lineto
43506.3 28805.4 lineto
43618.8 28749.2 lineto
43675.1 28636.7 lineto
43675.1 28018 lineto
stroke
newpath
44237.5 28018 moveto
44237.5 28805.4 lineto
stroke
newpath
44237.5 28692.9 moveto
44293.7 28749.2 lineto
44406.2 28805.4 lineto
44574.9 28805.4 lineto
44687.4 28749.2 lineto
44743.7 28636.7 lineto
44743.7 28018 lineto
stroke
newpath
44743.7 28636.7 moveto
44799.9 28749.2 lineto
44912.4 28805.4 lineto
45081.1 28805.4 lineto
45193.6 28749.2 lineto
45249.9 28636.7 lineto
45249.9 28018 lineto
stroke
newpath
47555.8 29255.4 moveto
46543.5 27736.8 lineto
stroke
newpath
49074.4 29199.1 moveto
49186.9 29199.1 lineto
49299.4 29142.9 lineto
49355.6 29086.6 lineto
49411.8 28974.1 lineto
49468.1 28749.2 lineto
49468.1 28468 lineto
49411.8 28243 lineto
49355.6 28130.5 lineto
49299.4 28074.3 lineto
49186.9 28018 lineto
49074.4 28018 lineto
48961.9 28074.3 lineto
48905.7 28130.5 lineto
48849.4 28243 lineto
48793.2 28468 lineto
48793.2 28749.2 lineto
48849.4 28974.1 lineto
48905.7 29086.6 lineto
48961.9 29142.9 lineto
49074.4 29199.1 lineto
stroke
newpath
49974.3 28130.5 moveto
50030.5 28074.3 lineto
49974.3 28018 lineto
49918 28074.3 lineto
49974.3 28130.5 lineto
49974.3 28018 lineto
stroke
newpath
50761.7 29199.1 moveto
50874.2 29199.1 lineto
50986.6 29142.9 lineto
51042.9 29086.6 lineto
51099.1 28974.1 lineto
51155.4 28749.2 lineto
51155.4 28468 lineto
51099.1 28243 lineto
51042.9 28130.5 lineto
50986.6 28074.3 lineto
50874.2 28018 lineto
50761.7 28018 lineto
50649.2 28074.3 lineto
50592.9 28130.5 lineto
50536.7 28243 lineto
50480.5 28468 lineto
50480.5 28749.2 lineto
50536.7 28974.1 lineto
50592.9 29086.6 lineto
50649.2 29142.9 lineto
50761.7 29199.1 lineto
stroke
newpath
51830.3 28692.9 moveto
51717.8 28749.2 lineto
51661.6 28805.4 lineto
51605.3 28917.9 lineto
51605.3 28974.1 lineto
51661.6 29086.6 lineto
51717.8 29142.9 lineto
51830.3 29199.1 lineto
52055.3 29199.1 lineto
52167.7 29142.9 lineto
52224 29086.6 lineto
52280.2 28974.1 lineto
52280.2 28917.9 lineto
52224 28805.4 lineto
52167.7 28749.2 lineto
52055.3 28692.9 lineto
51830.3 28692.9 lineto
51717.8 28636.7 lineto
51661.6 28580.4 lineto
51605.3 28468 lineto
51605.3 28243 lineto
51661.6 28130.5 lineto
51717.8 28074.3 lineto
51830.3 28018 lineto
52055.3 28018 lineto
52167.7 28074.3 lineto
52224 28130.5 lineto
52280.2 28243 lineto
52280.2 28468 lineto
52224 28580.4 lineto
52167.7 28636.7 lineto
52055.3 28692.9 lineto
stroke
newpath
52673.9 29199.1 moveto
53461.3 29199.1 lineto
52955.1 28018 lineto
stroke
newpath
53855 29199.1 moveto
53855 28974.1 lineto
stroke
newpath
54305 29199.1 moveto
54305 28974.1 lineto
stroke
newpath
56048.5 27568.1 moveto
55992.3 27624.3 lineto
55879.8 27793 lineto
55823.5 27905.5 lineto
55767.3 28074.3 lineto
55711.1 28355.5 lineto
55711.1 28580.4 lineto
55767.3 28861.7 lineto
55823.5 29030.4 lineto
55879.8 29142.9 lineto
55992.3 29311.6 lineto
56048.5 29367.8 lineto
stroke
newpath
57004.6 28805.4 moveto
57004.6 28018 lineto
stroke
newpath
56723.4 29255.4 moveto
56442.2 28411.7 lineto
57173.4 28411.7 lineto
stroke
newpath
58523.2 28018 moveto
58523.2 29199.1 lineto
stroke
newpath
59029.4 28018 moveto
59029.4 28636.7 lineto
58973.1 28749.2 lineto
58860.7 28805.4 lineto
58691.9 28805.4 lineto
58579.4 28749.2 lineto
58523.2 28692.9 lineto
stroke
newpath
59760.5 28018 moveto
59648.1 28074.3 lineto
59591.8 28130.5 lineto
59535.6 28243 lineto
59535.6 28580.4 lineto
59591.8 28692.9 lineto
59648.1 28749.2 lineto
59760.5 28805.4 lineto
59929.3 28805.4 lineto
60041.8 28749.2 lineto
60098 28692.9 lineto
60154.2 28580.4 lineto
60154.2 28243 lineto
60098 28130.5 lineto
60041.8 28074.3 lineto
59929.3 28018 lineto
59760.5 28018 lineto
stroke
newpath
60829.2 28018 moveto
60716.7 28074.3 lineto
60660.4 28186.7 lineto
60660.4 29199.1 lineto
stroke
newpath
61729.1 28074.3 moveto
61616.6 28018 lineto
61391.6 28018 lineto
61279.1 28074.3 lineto
61222.9 28186.7 lineto
61222.9 28636.7 lineto
61279.1 28749.2 lineto
61391.6 28805.4 lineto
61616.6 28805.4 lineto
61729.1 28749.2 lineto
61785.3 28636.7 lineto
61785.3 28524.2 lineto
61222.9 28411.7 lineto
stroke
newpath
62235.2 28074.3 moveto
62347.7 28018 lineto
62572.7 28018 lineto
62685.2 28074.3 lineto
62741.4 28186.7 lineto
62741.4 28243 lineto
62685.2 28355.5 lineto
62572.7 28411.7 lineto
62404 28411.7 lineto
62291.5 28468 lineto
62235.2 28580.4 lineto
62235.2 28636.7 lineto
62291.5 28749.2 lineto
62404 28805.4 lineto
62572.7 28805.4 lineto
62685.2 28749.2 lineto
stroke
newpath
63135.1 27568.1 moveto
63191.4 27624.3 lineto
63303.9 27793 lineto
63360.1 27905.5 lineto
63416.3 28074.3 lineto
63472.6 28355.5 lineto
63472.6 28580.4 lineto
63416.3 28861.7 lineto
63360.1 29030.4 lineto
63303.9 29142.9 lineto
63191.4 29311.6 lineto
63135.1 29367.8 lineto
stroke
showpage
grestore
%%EOF
